serieParalelo/test.vcd
$date
	Tue Oct  8 23:55:21 2019
$end
$version
	Icarus Verilog
$end
$timescale
	100ps
$end
$scope module BUF $end
$var wire 1 ! A $end
$var wire 1 " Y $end
$upscope $end
$scope module DFFSR $end
$var wire 1 # C $end
$var wire 1 $ D $end
$var wire 1 % R $end
$var wire 1 & S $end
$var reg 1 ' Q $end
$upscope $end
$scope module bancoPruebas $end
$var wire 1 ( valid_out $end
$var wire 8 ) data_outE [7:0] $end
$var wire 8 * data_out [7:0] $end
$var wire 1 + data_in $end
$var wire 1 , clk_4f $end
$var wire 1 - clk_32f $end
$var wire 1 . activeE $end
$var wire 1 / active $end
$var wire 3 0 BC_counterE [2:0] $end
$var wire 3 1 BC_counter [2:0] $end
$scope module estructural $end
$var wire 1 ( valid_out $end
$var wire 8 2 data_out [7:0] $end
$var wire 1 + data_in $end
$var wire 1 , clk_4f $end
$var wire 1 - clk_32f $end
$var wire 8 3 bus0 [0:7] $end
$var wire 1 . active $end
$var wire 1 4 _051_ $end
$var wire 1 5 _050_ $end
$var wire 1 6 _049_ $end
$var wire 1 7 _048_ $end
$var wire 1 8 _047_ $end
$var wire 1 9 _046_ $end
$var wire 1 : _045_ $end
$var wire 1 ; _044_ $end
$var wire 1 < _043_ $end
$var wire 1 = _042_ $end
$var wire 1 > _041_ $end
$var wire 1 ? _040_ $end
$var wire 1 @ _039_ $end
$var wire 1 A _038_ $end
$var wire 1 B _037_ $end
$var wire 1 C _036_ $end
$var wire 1 D _035_ $end
$var wire 1 E _034_ $end
$var wire 1 F _033_ $end
$var wire 1 G _032_ $end
$var wire 1 H _031_ $end
$var wire 1 I _030_ $end
$var wire 1 J _029_ $end
$var wire 1 K _028_ $end
$var wire 1 L _027_ $end
$var wire 1 M _026_ $end
$var wire 1 N _025_ $end
$var wire 1 O _024_ $end
$var wire 1 P _023_ $end
$var wire 1 Q _022_ $end
$var wire 1 R _021_ $end
$var wire 1 S _020_ $end
$var wire 1 T _019_ $end
$var wire 1 U _018_ $end
$var wire 1 V _017_ $end
$var wire 1 W _016_ $end
$var wire 1 X _015_ $end
$var wire 1 Y _014_ $end
$var wire 1 Z _013_ $end
$var wire 1 [ _012_ $end
$var wire 1 \ _011_ $end
$var wire 1 ] _010_ $end
$var wire 1 ^ _009_ $end
$var wire 1 _ _008_ $end
$var wire 1 ` _007_ $end
$var wire 1 a _006_ $end
$var wire 1 b _005_ $end
$var wire 1 c _004_ $end
$var wire 1 d _003_ $end
$var wire 1 e _002_ $end
$var wire 1 f _001_ $end
$var wire 3 g _000_ [2:0] $end
$var wire 3 h BC_counter [2:0] $end
$scope module _052_ $end
$var wire 1 i A $end
$var wire 1 e Y $end
$upscope $end
$scope module _053_ $end
$var wire 1 j A $end
$var wire 1 d Y $end
$upscope $end
$scope module _054_ $end
$var wire 1 d A $end
$var wire 1 k B $end
$var wire 1 c Y $end
$upscope $end
$scope module _055_ $end
$var wire 1 c A $end
$var wire 1 b Y $end
$upscope $end
$scope module _056_ $end
$var wire 1 l A $end
$var wire 1 a Y $end
$upscope $end
$scope module _057_ $end
$var wire 1 m A $end
$var wire 1 ` Y $end
$upscope $end
$scope module _058_ $end
$var wire 1 ` A $end
$var wire 1 a B $end
$var wire 1 _ Y $end
$upscope $end
$scope module _059_ $end
$var wire 1 n A $end
$var wire 1 ^ Y $end
$upscope $end
$scope module _060_ $end
$var wire 1 o A $end
$var wire 1 ] Y $end
$upscope $end
$scope module _061_ $end
$var wire 1 ] A $end
$var wire 1 ^ B $end
$var wire 1 \ Y $end
$upscope $end
$scope module _062_ $end
$var wire 1 \ A $end
$var wire 1 _ B $end
$var wire 1 [ Y $end
$upscope $end
$scope module _063_ $end
$var wire 1 p A $end
$var wire 1 q B $end
$var wire 1 Z Y $end
$upscope $end
$scope module _064_ $end
$var wire 1 r A $end
$var wire 1 Y Y $end
$upscope $end
$scope module _065_ $end
$var wire 1 Y A $end
$var wire 1 s B $end
$var wire 1 X Y $end
$upscope $end
$scope module _066_ $end
$var wire 1 X A $end
$var wire 1 Z B $end
$var wire 1 W Y $end
$upscope $end
$scope module _067_ $end
$var wire 1 W A $end
$var wire 1 [ B $end
$var wire 1 V Y $end
$upscope $end
$scope module _068_ $end
$var wire 1 V A $end
$var wire 1 b B $end
$var wire 1 U Y $end
$upscope $end
$scope module _069_ $end
$var wire 1 U A $end
$var wire 1 e B $end
$var wire 1 T Y $end
$upscope $end
$scope module _070_ $end
$var wire 1 V A $end
$var wire 1 t B $end
$var wire 1 S Y $end
$upscope $end
$scope module _071_ $end
$var wire 1 S A $end
$var wire 1 T B $end
$var wire 1 R Y $end
$upscope $end
$scope module _072_ $end
$var wire 1 R A $end
$var wire 1 u Y $end
$upscope $end
$scope module _073_ $end
$var wire 1 v A $end
$var wire 1 Q Y $end
$upscope $end
$scope module _074_ $end
$var wire 1 S A $end
$var wire 1 Q B $end
$var wire 1 P Y $end
$upscope $end
$scope module _075_ $end
$var wire 1 w A $end
$var wire 1 x B $end
$var wire 1 O Y $end
$upscope $end
$scope module _076_ $end
$var wire 1 y A $end
$var wire 1 N Y $end
$upscope $end
$scope module _077_ $end
$var wire 1 z A $end
$var wire 1 M Y $end
$upscope $end
$scope module _078_ $end
$var wire 1 M A $end
$var wire 1 N B $end
$var wire 1 L Y $end
$upscope $end
$scope module _079_ $end
$var wire 1 L A $end
$var wire 1 O B $end
$var wire 1 K Y $end
$upscope $end
$scope module _080_ $end
$var wire 1 { A $end
$var wire 1 | B $end
$var wire 1 J Y $end
$upscope $end
$scope module _081_ $end
$var wire 1 } A $end
$var wire 1 I Y $end
$upscope $end
$scope module _082_ $end
$var wire 1 ~ A $end
$var wire 1 I B $end
$var wire 1 H Y $end
$upscope $end
$scope module _083_ $end
$var wire 1 H A $end
$var wire 1 J B $end
$var wire 1 G Y $end
$upscope $end
$scope module _084_ $end
$var wire 1 G A $end
$var wire 1 K B $end
$var wire 1 F Y $end
$upscope $end
$scope module _085_ $end
$var wire 1 F A $end
$var wire 1 e B $end
$var wire 1 E Y $end
$upscope $end
$scope module _086_ $end
$var wire 1 E A $end
$var wire 1 !" B $end
$var wire 1 D Y $end
$upscope $end
$scope module _087_ $end
$var wire 1 D A $end
$var wire 1 P B $end
$var wire 1 C Y $end
$upscope $end
$scope module _088_ $end
$var wire 1 C A $end
$var wire 1 "" Y $end
$upscope $end
$scope module _089_ $end
$var wire 1 ] A $end
$var wire 1 a B $end
$var wire 1 B Y $end
$upscope $end
$scope module _090_ $end
$var wire 1 #" A $end
$var wire 1 $" B $end
$var wire 1 A Y $end
$upscope $end
$scope module _091_ $end
$var wire 1 A A $end
$var wire 1 B B $end
$var wire 1 @ Y $end
$upscope $end
$scope module _092_ $end
$var wire 1 ^ A $end
$var wire 1 ` B $end
$var wire 1 ? Y $end
$upscope $end
$scope module _093_ $end
$var wire 1 Y A $end
$var wire 1 %" B $end
$var wire 1 > Y $end
$upscope $end
$scope module _094_ $end
$var wire 1 > A $end
$var wire 1 ? B $end
$var wire 1 = Y $end
$upscope $end
$scope module _095_ $end
$var wire 1 = A $end
$var wire 1 @ B $end
$var wire 1 < Y $end
$upscope $end
$scope module _096_ $end
$var wire 1 < A $end
$var wire 1 &" B $end
$var wire 1 ; Y $end
$upscope $end
$scope module _097_ $end
$var wire 1 ; A $end
$var wire 1 Q B $end
$var wire 1 : Y $end
$upscope $end
$scope module _098_ $end
$var wire 1 : A $end
$var wire 1 d B $end
$var wire 1 9 Y $end
$upscope $end
$scope module _099_ $end
$var wire 1 D A $end
$var wire 1 '" B $end
$var wire 1 8 Y $end
$upscope $end
$scope module _100_ $end
$var wire 1 8 A $end
$var wire 1 9 B $end
$var wire 1 7 Y $end
$upscope $end
$scope module _101_ $end
$var wire 1 C A $end
$var wire 1 R B $end
$var wire 1 6 Y $end
$upscope $end
$scope module _102_ $end
$var wire 1 6 A $end
$var wire 1 7 B $end
$var wire 1 f Y $end
$upscope $end
$scope module _103_ $end
$var wire 1 D A $end
$var wire 1 (" B $end
$var wire 1 5 Y $end
$upscope $end
$scope module _104_ $end
$var wire 1 : A $end
$var wire 1 d B $end
$var wire 1 4 Y $end
$upscope $end
$scope module _105_ $end
$var wire 1 4 A $end
$var wire 1 5 B $end
$var wire 1 )" Y $end
$upscope $end
$scope module _106_ $end
$var wire 1 *" D $end
$var wire 1 , C $end
$var reg 1 +" Q $end
$upscope $end
$scope module _107_ $end
$var wire 1 ," D $end
$var wire 1 , C $end
$var reg 1 -" Q $end
$upscope $end
$scope module _108_ $end
$var wire 1 ." D $end
$var wire 1 , C $end
$var reg 1 /" Q $end
$upscope $end
$scope module _109_ $end
$var wire 1 0" D $end
$var wire 1 , C $end
$var reg 1 1" Q $end
$upscope $end
$scope module _110_ $end
$var wire 1 2" D $end
$var wire 1 , C $end
$var reg 1 3" Q $end
$upscope $end
$scope module _111_ $end
$var wire 1 4" D $end
$var wire 1 , C $end
$var reg 1 5" Q $end
$upscope $end
$scope module _112_ $end
$var wire 1 6" D $end
$var wire 1 , C $end
$var reg 1 7" Q $end
$upscope $end
$scope module _113_ $end
$var wire 1 8" D $end
$var wire 1 , C $end
$var reg 1 9" Q $end
$upscope $end
$scope module _114_ $end
$var wire 1 f D $end
$var wire 1 , C $end
$var reg 1 . Q $end
$upscope $end
$scope module _115_ $end
$var wire 1 :" D $end
$var wire 1 , C $end
$var reg 1 ;" Q $end
$upscope $end
$scope module _116_ $end
$var wire 1 <" D $end
$var wire 1 , C $end
$var reg 1 =" Q $end
$upscope $end
$scope module _117_ $end
$var wire 1 >" D $end
$var wire 1 , C $end
$var reg 1 ?" Q $end
$upscope $end
$scope module _118_ $end
$var wire 1 + D $end
$var wire 1 - C $end
$var reg 1 @" Q $end
$upscope $end
$upscope $end
$scope module probador_serie_paralelo_1 $end
$var wire 3 A" BC_counterE [2:0] $end
$var wire 1 . activeE $end
$var wire 8 B" data_outE [7:0] $end
$var wire 8 C" data_out [7:0] $end
$var wire 1 / active $end
$var wire 3 D" BC_counter [2:0] $end
$var reg 1 - clk_32f $end
$var reg 1 , clk_4f $end
$var reg 1 + data_in $end
$var reg 1 ( valid_out $end
$upscope $end
$scope module serie_paralelo_1 $end
$var wire 1 - clk_32f $end
$var wire 1 , clk_4f $end
$var wire 1 + data_in $end
$var wire 1 ( valid_out $end
$var reg 3 E" BC_counter [2:0] $end
$var reg 1 / active $end
$var reg 8 F" bus0 [0:7] $end
$var reg 3 G" counter [2:0] $end
$var reg 8 H" data_out [7:0] $end
$upscope $end
$upscope $end
$enddefinitions $end
#0
$dumpvars
bx H"
bx G"
bx F"
bx E"
bx D"
bx C"
bx B"
bx A"
x@"
x?"
x>"
x="
x<"
x;"
x:"
x9"
x8"
x7"
z6"
x5"
z4"
x3"
z2"
x1"
z0"
x/"
z."
x-"
z,"
x+"
z*"
x)"
x("
x'"
x&"
x%"
x$"
x#"
x""
x!"
x~
x}
x|
x{
xz
xy
xx
xw
xv
xu
xt
xs
xr
xq
xp
xo
xn
xm
xl
xk
xj
xi
bx h
bx g
xf
xe
xd
xc
xb
xa
x`
x_
x^
x]
x\
x[
xZ
xY
xX
xW
xV
xU
xT
xS
xR
xQ
xP
xO
xN
xM
xL
xK
xJ
xI
xH
xG
xF
xE
xD
xC
xB
xA
x@
x?
x>
x=
x<
x;
x:
x9
x8
x7
x6
x5
x4
bxzzzzzzz 3
bx 2
bx 1
bx 0
x/
x.
0-
0,
0+
bx *
bx )
0(
x'
z&
z%
z$
z#
z"
z!
$end
#10
08"
b0 1
b0 D"
b0 E"
b0zzzzzzz 3
0@"
1-
#20
0-
#30
1-
#40
0-
#50
1-
#60
0-
#70
1+
1-
#80
14
08
0:
1D
1U
1S
1;
0E
0V
0<
1F
1[
1@
0K
0\
0B
1O
1]
z%"
z}
zq
z$"
zy
zp
z~
zr
zx
zl
z|
zm
z{
zn
z#"
zz
zs
0w
0o
0/
b0 G"
z+"
z-"
z/"
z1"
z3"
z5"
z7"
b0zzzzzzz )
b0zzzzzzz 2
b0zzzzzzz B"
09"
0-
1,
#90
18"
b1xxxxxxx F"
0+
b1zzzzzzz 3
1@"
b1 G"
1-
#100
0-
#110
08"
b0zzzzzzz 3
0@"
1+
b10xxxxxx F"
b10 G"
1-
#120
0-
#130
18"
b101xxxxx F"
b1zzzzzzz 3
1@"
b11 G"
1-
#140
0-
#150
b1011xxxx F"
b100 G"
1-
#160
0-
0,
#170
b10111xxx F"
b101 G"
1-
#180
0-
#190
0+
b101111xx F"
b110 G"
1-
#200
0-
#210
08"
b1011110x F"
b0zzzzzzz 3
0@"
b111 G"
1-
#220
0-
#230
1+
b10111100 F"
b0 G"
1-
#240
b10111100 *
b10111100 C"
b10111100 H"
0-
1,
#250
18"
1(
0+
b1zzzzzzz 3
1@"
b1 G"
1-
#260
0-
#270
08"
b0zzzzzzz 3
0@"
1+
b10 G"
1-
#280
0-
#290
18"
b1zzzzzzz 3
1@"
b11 G"
1-
#300
0-
#310
b100 G"
1-
#320
0-
0,
#330
b101 G"
1-
#340
0-
#350
0+
b110 G"
1-
#360
0-
#370
08"
b0zzzzzzz 3
0@"
b111 G"
1-
#380
0-
#390
1+
b0 G"
1-
#400
b1 1
b1 D"
b1 E"
0-
1,
#410
18"
0+
b1zzzzzzz 3
1@"
b1 G"
1-
#420
0-
#430
08"
b0zzzzzzz 3
0@"
1+
b10 G"
1-
#440
0-
#450
18"
b1zzzzzzz 3
1@"
b11 G"
1-
#460
0-
#470
b100 G"
1-
#480
0-
0,
#490
b101 G"
1-
#500
0-
#510
0+
b110 G"
1-
#520
0-
#530
08"
b0zzzzzzz 3
0@"
b111 G"
1-
#540
0-
#550
1+
b0 G"
1-
#560
b10 1
b10 D"
b10 E"
0-
1,
#570
18"
0+
b1zzzzzzz 3
1@"
b1 G"
1-
#580
0-
#590
08"
b0zzzzzzz 3
0@"
1+
b10 G"
1-
#600
0-
#610
18"
b1zzzzzzz 3
1@"
b11 G"
1-
#620
0-
#630
b100 G"
1-
#640
0-
0,
#650
b101 G"
1-
#660
0-
#670
0+
b110 G"
1-
#680
0-
#690
08"
b0zzzzzzz 3
0@"
b111 G"
1-
#700
0-
#710
b0 G"
1-
#720
b11 1
b11 D"
b11 E"
0-
1,
#730
b111100 F"
1+
b1 G"
1-
#740
0-
#750
18"
b1zzzzzzz 3
1@"
0+
b1111100 F"
b10 G"
1-
#760
0-
#770
08"
b1011100 F"
b0zzzzzzz 3
0@"
b11 G"
1-
#780
0-
#790
1+
b1001100 F"
b100 G"
1-
#800
0-
0,
#810
18"
0+
b1zzzzzzz 3
1@"
b101 G"
1-
#820
0-
#830
08"
b0zzzzzzz 3
0@"
1+
b1001000 F"
b110 G"
1-
#840
0-
#850
18"
b1001010 F"
b1zzzzzzz 3
1@"
b111 G"
1-
#860
0-
#870
b1001011 F"
b0 G"
1-
#880
x4
x8
x:
xD
xU
xS
x;
xE
xV
x<
xF
x[
x@
xK
x\
xB
xO
0]
1w
1o
b1zzzzzzz )
b1zzzzzzz 2
b1zzzzzzz B"
19"
1/
b1001011 *
b1001011 C"
b1001011 H"
b100 1
b100 D"
b100 E"
0-
1,
#890
b11001011 F"
b1 G"
1-
#900
0-
#910
0+
b10 G"
1-
#920
0-
#930
08"
1+
b0zzzzzzz 3
0@"
b11 G"
1-
#940
0-
#950
18"
b1zzzzzzz 3
1@"
0+
b11011011 F"
b100 G"
1-
#960
0-
0,
#970
08"
b11010011 F"
b0zzzzzzz 3
0@"
b101 G"
1-
#980
0-
#990
1+
b110 G"
1-
#1000
0-
#1010
18"
0+
b1zzzzzzz 3
1@"
b111 G"
1-
#1020
0-
#1030
08"
b0zzzzzzz 3
0@"
1+
b11010010 F"
b0 G"
1-
#1040
14
08
0:
1D
1U
1S
1;
0E
0V
0<
1F
1[
1@
0K
0\
0B
1O
1]
0w
0o
b11010010 *
b11010010 C"
b11010010 H"
b0zzzzzzz )
b0zzzzzzz 2
b0zzzzzzz B"
09"
0-
1,
#1050
18"
b1zzzzzzz 3
1@"
b1 G"
1-
#1060
0-
#1070
0+
b10 G"
1-
#1080
0-
#1090
08"
b0zzzzzzz 3
0@"
b11 G"
1-
#1100
0-
#1110
1+
b11000010 F"
b100 G"
1-
#1120
0-
0,
#1130
18"
b11001010 F"
b1zzzzzzz 3
1@"
b101 G"
1-
#1140
0-
#1150
b11001110 F"
b110 G"
1-
#1160
0-
#1170
0+
b111 G"
1-
#1180
0-
#1190
08"
b0zzzzzzz 3
0@"
b0 G"
1-
#1200
b11001110 *
b11001110 C"
b11001110 H"
0-
1,
#1210
b1001110 F"
b1 G"
1-
#1220
0-
#1230
1+
b1110 F"
b10 G"
1-
#1240
0-
#1250
18"
b101110 F"
0+
b1zzzzzzz 3
1@"
b11 G"
1-
#1260
0-
#1270
08"
b0zzzzzzz 3
0@"
1+
b100 G"
1-
#1280
0-
0,
#1290
18"
b1zzzzzzz 3
1@"
b101 G"
1-
#1300
0-
#1310
b110 G"
1-
#1320
0-
#1330
0+
b111 G"
1-
#1340
0-
#1350
08"
b0zzzzzzz 3
0@"
b0 G"
1-
#1360
b101110 *
b101110 C"
b101110 H"
0-
1,
#1370
b1 G"
1-
#1380
0-
#1390
1+
b10 G"
1-
#1400
0-
#1410
18"
b1zzzzzzz 3
1@"
b11 G"
1-
#1420
0-
#1430
b111110 F"
b100 G"
1-
#1440
0-
0,
#1450
0+
b101 G"
1-
#1460
0-
#1470
08"
b0zzzzzzz 3
0@"
1+
b111010 F"
b110 G"
1-
#1480
0-
#1490
18"
0+
b1zzzzzzz 3
1@"
b111 G"
1-
#1500
0-
#1510
08"
b0zzzzzzz 3
0@"
1+
b0 G"
1-
#1520
b111010 *
b111010 C"
b111010 H"
0-
1,
#1530
18"
b10111010 F"
b1zzzzzzz 3
1@"
b1 G"
1-
#1540
0-
#1550
b11111010 F"
b10 G"
1-
#1560
0-
#1570
b11 G"
1-
#1580
0-
#1590
b100 G"
1-
#1600
0-
0,
#1610
b101 G"
1-
#1620
0-
#1630
b11111110 F"
b110 G"
1-
#1640
0-
#1650
0+
b111 G"
1-
#1660
0-
#1670
08"
b0zzzzzzz 3
0@"
b0 G"
1-
#1680
b11111110 *
b11111110 C"
b11111110 H"
0-
1,
#1690
b1111110 F"
b1 G"
1-
#1700
0-
#1710
1+
b111110 F"
b10 G"
1-
#1720
0-
#1730
18"
0+
b1zzzzzzz 3
1@"
b11 G"
1-
#1740
0-
#1750
08"
b0zzzzzzz 3
0@"
b101110 F"
b100 G"
1-
#1760
0-
0,
#1770
b100110 F"
b101 G"
1-
#1780
0-
#1790
1+
b100010 F"
b110 G"
1-
#1800
0-
#1810
18"
0+
b1zzzzzzz 3
1@"
b111 G"
1-
