Phy_Pcie_/reloj.vcd
$date
	Tue Oct  5 07:54:57 2021
$end
$version
	Icarus Verilog
$end
$timescale
	1ps
$end
$scope module Testbench_reg $end
$var wire 1 ! clk_out_f $end
$var wire 1 " clk_out_4f $end
$var wire 1 # clk_out_2f $end
$var wire 1 $ clk_in $end
$scope module clk_2f $end
$var wire 1 " clk_in $end
$var reg 1 # clk_out $end
$var reg 32 % counter [31:0] $end
$upscope $end
$scope module clk_4f $end
$var wire 1 $ clk_in $end
$var reg 1 " clk_out $end
$var reg 32 & counter [31:0] $end
$upscope $end
$scope module clk_f $end
$var wire 1 # clk_in $end
$var reg 1 ! clk_out $end
$var reg 32 ' counter [31:0] $end
$upscope $end
$scope module test $end
$var wire 1 # clk_out_2f $end
$var wire 1 " clk_out_4f $end
$var wire 1 ! clk_out_f $end
$var reg 1 $ clk_in $end
$upscope $end
$upscope $end
$enddefinitions $end
#0
$dumpvars
b0 '
b0 &
b0 %
0$
x#
x"
x!
$end
#2000000000000
1!
b1 '
1#
b1 %
1"
b1 &
1$
#4000000000000
0$
#6000000000000
b10 &
1$
#8000000000000
0$
#10000000000000
b11 &
1$
#12000000000000
0$
#14000000000000
0"
b100 &
1$
#16000000000000
0$
#18000000000000
b101 &
1$
#20000000000000
0$
#22000000000000
b0 &
1$
#24000000000000
0$
#26000000000000
0#
b0 %
1"
b1 &
1$
#28000000000000
0$
#30000000000000
b10 &
1$
#32000000000000
0$
#34000000000000
b11 &
1$
#36000000000000
0$
#38000000000000
0"
b100 &
1$
#40000000000000
0$
#42000000000000
b101 &
1$
#44000000000000
0$
#46000000000000
b0 &
1$
#48000000000000
0$
#50000000000000
0!
b0 '
1#
b1 %
1"
b1 &
1$
#52000000000000
0$
#54000000000000
b10 &
1$
#56000000000000
0$
#58000000000000
b11 &
1$
#60000000000000
0$
#62000000000000
0"
b100 &
1$
#64000000000000
0$
#66000000000000
b101 &
1$
#68000000000000
0$
#70000000000000
b0 &
1$
#72000000000000
0$
#74000000000000
0#
b0 %
1"
b1 &
1$
#76000000000000
0$
#78000000000000
b10 &
1$
#80000000000000
0$
#82000000000000
b11 &
1$
#84000000000000
0$
#86000000000000
0"
b100 &
1$
#88000000000000
0$
#90000000000000
b101 &
1$
#92000000000000
0$
#94000000000000
b0 &
1$
#96000000000000
0$
#98000000000000
1!
b1 '
1#
b1 %
1"
b1 &
1$
#100000000000000
0$
#102000000000000
b10 &
1$
#104000000000000
0$
#106000000000000
b11 &
1$
#108000000000000
0$
#110000000000000
0"
b100 &
1$
#112000000000000
0$
#114000000000000
b101 &
1$
#116000000000000
0$
#118000000000000
b0 &
1$
#120000000000000
0$
#122000000000000
0#
b0 %
1"
b1 &
1$
#124000000000000
0$
#126000000000000
b10 &
1$
#128000000000000
0$
#130000000000000
b11 &
1$
#132000000000000
0$
#134000000000000
0"
b100 &
1$
#136000000000000
0$
#138000000000000
b101 &
1$
#140000000000000
0$
#142000000000000
b0 &
1$
#144000000000000
0$
#146000000000000
0!
b0 '
1#
b1 %
1"
b1 &
1$
#148000000000000
0$
#150000000000000
b10 &
1$
#152000000000000
0$
#154000000000000
b11 &
1$
#156000000000000
0$
#158000000000000
0"
b100 &
1$
