32b_to_8b/conv_32b_to_8b.vcd
$date
	Wed Oct  6 20:13:28 2021
$end
$version
	Icarus Verilog
$end
$timescale
	100ps
$end
$scope module BancoPruebas $end
$var wire 8 ! data_out [7:0] $end
$var wire 1 " valid_out $end
$var wire 1 # valid_in $end
$var wire 1 $ sel $end
$var wire 32 % data_in [31:0] $end
$var wire 1 & clk_4f $end
$var wire 1 ' clk $end
$scope module conv_32b_to_8b_Coductual $end
$var wire 1 # valid_in $end
$var wire 32 ( data_in [31:0] $end
$var wire 1 & clk_4f $end
$var wire 1 ' clk $end
$var reg 8 ) data_out [7:0] $end
$var reg 2 * sel [1:0] $end
$var reg 1 + valid_out $end
$upscope $end
$scope module conv_32b_to_8b_Estructural $end
$var wire 8 , data_out [7:0] $end
$var wire 1 " valid_out $end
$var wire 1 # valid_in $end
$var wire 2 - sel [1:0] $end
$var wire 32 . data_in [31:0] $end
$var wire 1 & clk_4f $end
$var wire 1 ' clk $end
$var wire 1 / _067_ $end
$var wire 1 0 _066_ $end
$var wire 1 1 _065_ $end
$var wire 1 2 _064_ $end
$var wire 1 3 _063_ $end
$var wire 1 4 _062_ $end
$var wire 1 5 _061_ $end
$var wire 1 6 _060_ $end
$var wire 1 7 _059_ $end
$var wire 1 8 _058_ $end
$var wire 1 9 _057_ $end
$var wire 1 : _056_ $end
$var wire 1 ; _055_ $end
$var wire 1 < _054_ $end
$var wire 1 = _053_ $end
$var wire 1 > _052_ $end
$var wire 1 ? _051_ $end
$var wire 1 @ _050_ $end
$var wire 1 A _049_ $end
$var wire 1 B _048_ $end
$var wire 1 C _047_ $end
$var wire 1 D _046_ $end
$var wire 1 E _045_ $end
$var wire 1 F _044_ $end
$var wire 1 G _043_ $end
$var wire 1 H _042_ $end
$var wire 1 I _041_ $end
$var wire 1 J _040_ $end
$var wire 1 K _039_ $end
$var wire 1 L _038_ $end
$var wire 1 M _037_ $end
$var wire 1 N _036_ $end
$var wire 1 O _035_ $end
$var wire 1 P _034_ $end
$var wire 1 Q _033_ $end
$var wire 1 R _032_ $end
$var wire 1 S _031_ $end
$var wire 1 T _030_ $end
$var wire 1 U _029_ $end
$var wire 1 V _028_ $end
$var wire 1 W _027_ $end
$var wire 1 X _026_ $end
$var wire 1 Y _025_ $end
$var wire 1 Z _024_ $end
$var wire 1 [ _023_ $end
$var wire 1 \ _022_ $end
$var wire 1 ] _021_ $end
$var wire 1 ^ _020_ $end
$var wire 1 _ _019_ $end
$var wire 1 ` _018_ $end
$var wire 1 a _017_ $end
$var wire 1 b _016_ $end
$var wire 1 c _015_ $end
$var wire 1 d _014_ $end
$var wire 1 e _013_ $end
$var wire 1 f _012_ $end
$var wire 1 g _011_ $end
$var wire 1 h _010_ $end
$var wire 1 i _009_ $end
$var wire 1 j _008_ $end
$var wire 1 k _007_ $end
$var wire 1 l _006_ $end
$var wire 1 m _005_ $end
$var wire 1 n _004_ $end
$var wire 1 o _003_ $end
$var wire 1 p _002_ $end
$var wire 2 q _001_ [1:0] $end
$var wire 8 r _000_ [7:0] $end
$scope module _068_ $end
$var wire 1 s A $end
$var wire 1 V Y $end
$upscope $end
$scope module _069_ $end
$var wire 1 t A $end
$var wire 1 U Y $end
$upscope $end
$scope module _070_ $end
$var wire 1 T Y $end
$var wire 1 # A $end
$upscope $end
$scope module _071_ $end
$var wire 1 V A $end
$var wire 1 U B $end
$var wire 1 S Y $end
$upscope $end
$scope module _072_ $end
$var wire 1 u A $end
$var wire 1 v B $end
$var wire 1 R Y $end
$upscope $end
$scope module _073_ $end
$var wire 1 w A $end
$var wire 1 S B $end
$var wire 1 Q Y $end
$upscope $end
$scope module _074_ $end
$var wire 1 x A $end
$var wire 1 y B $end
$var wire 1 P Y $end
$upscope $end
$scope module _075_ $end
$var wire 1 z A $end
$var wire 1 P B $end
$var wire 1 O Y $end
$upscope $end
$scope module _076_ $end
$var wire 1 Q A $end
$var wire 1 O B $end
$var wire 1 N Y $end
$upscope $end
$scope module _077_ $end
$var wire 1 { A $end
$var wire 1 U B $end
$var wire 1 M Y $end
$upscope $end
$scope module _078_ $end
$var wire 1 | A $end
$var wire 1 M B $end
$var wire 1 L Y $end
$upscope $end
$scope module _079_ $end
$var wire 1 V A $end
$var wire 1 } B $end
$var wire 1 K Y $end
$upscope $end
$scope module _080_ $end
$var wire 1 ~ A $end
$var wire 1 K B $end
$var wire 1 J Y $end
$upscope $end
$scope module _081_ $end
$var wire 1 L A $end
$var wire 1 J B $end
$var wire 1 I Y $end
$upscope $end
$scope module _082_ $end
$var wire 1 N A $end
$var wire 1 I B $end
$var wire 1 H Y $end
$upscope $end
$scope module _083_ $end
$var wire 1 T A $end
$var wire 1 H B $end
$var wire 1 !" Y $end
$upscope $end
$scope module _084_ $end
$var wire 1 "" A $end
$var wire 1 P B $end
$var wire 1 G Y $end
$upscope $end
$scope module _085_ $end
$var wire 1 #" A $end
$var wire 1 M B $end
$var wire 1 F Y $end
$upscope $end
$scope module _086_ $end
$var wire 1 G A $end
$var wire 1 F B $end
$var wire 1 E Y $end
$upscope $end
$scope module _087_ $end
$var wire 1 $" A $end
$var wire 1 S B $end
$var wire 1 D Y $end
$upscope $end
$scope module _088_ $end
$var wire 1 %" A $end
$var wire 1 K B $end
$var wire 1 C Y $end
$upscope $end
$scope module _089_ $end
$var wire 1 D A $end
$var wire 1 C B $end
$var wire 1 B Y $end
$upscope $end
$scope module _090_ $end
$var wire 1 E A $end
$var wire 1 B B $end
$var wire 1 A Y $end
$upscope $end
$scope module _091_ $end
$var wire 1 T A $end
$var wire 1 A B $end
$var wire 1 &" Y $end
$upscope $end
$scope module _092_ $end
$var wire 1 '" A $end
$var wire 1 S B $end
$var wire 1 @ Y $end
$upscope $end
$scope module _093_ $end
$var wire 1 (" A $end
$var wire 1 P B $end
$var wire 1 ? Y $end
$upscope $end
$scope module _094_ $end
$var wire 1 @ A $end
$var wire 1 ? B $end
$var wire 1 > Y $end
$upscope $end
$scope module _095_ $end
$var wire 1 )" A $end
$var wire 1 M B $end
$var wire 1 = Y $end
$upscope $end
$scope module _096_ $end
$var wire 1 *" A $end
$var wire 1 K B $end
$var wire 1 < Y $end
$upscope $end
$scope module _097_ $end
$var wire 1 = A $end
$var wire 1 < B $end
$var wire 1 ; Y $end
$upscope $end
$scope module _098_ $end
$var wire 1 > A $end
$var wire 1 ; B $end
$var wire 1 : Y $end
$upscope $end
$scope module _099_ $end
$var wire 1 T A $end
$var wire 1 : B $end
$var wire 1 +" Y $end
$upscope $end
$scope module _100_ $end
$var wire 1 ," A $end
$var wire 1 S B $end
$var wire 1 9 Y $end
$upscope $end
$scope module _101_ $end
$var wire 1 -" A $end
$var wire 1 P B $end
$var wire 1 8 Y $end
$upscope $end
$scope module _102_ $end
$var wire 1 9 A $end
$var wire 1 8 B $end
$var wire 1 7 Y $end
$upscope $end
$scope module _103_ $end
$var wire 1 ." A $end
$var wire 1 M B $end
$var wire 1 6 Y $end
$upscope $end
$scope module _104_ $end
$var wire 1 /" A $end
$var wire 1 K B $end
$var wire 1 5 Y $end
$upscope $end
$scope module _105_ $end
$var wire 1 6 A $end
$var wire 1 5 B $end
$var wire 1 4 Y $end
$upscope $end
$scope module _106_ $end
$var wire 1 7 A $end
$var wire 1 4 B $end
$var wire 1 3 Y $end
$upscope $end
$scope module _107_ $end
$var wire 1 T A $end
$var wire 1 3 B $end
$var wire 1 0" Y $end
$upscope $end
$scope module _108_ $end
$var wire 1 1" A $end
$var wire 1 S B $end
$var wire 1 2 Y $end
$upscope $end
$scope module _109_ $end
$var wire 1 2" A $end
$var wire 1 P B $end
$var wire 1 1 Y $end
$upscope $end
$scope module _110_ $end
$var wire 1 2 A $end
$var wire 1 1 B $end
$var wire 1 0 Y $end
$upscope $end
$scope module _111_ $end
$var wire 1 3" A $end
$var wire 1 M B $end
$var wire 1 / Y $end
$upscope $end
$scope module _112_ $end
$var wire 1 4" A $end
$var wire 1 K B $end
$var wire 1 o Y $end
$upscope $end
$scope module _113_ $end
$var wire 1 / A $end
$var wire 1 o B $end
$var wire 1 n Y $end
$upscope $end
$scope module _114_ $end
$var wire 1 0 A $end
$var wire 1 n B $end
$var wire 1 m Y $end
$upscope $end
$scope module _115_ $end
$var wire 1 T A $end
$var wire 1 m B $end
$var wire 1 5" Y $end
$upscope $end
$scope module _116_ $end
$var wire 1 6" A $end
$var wire 1 S B $end
$var wire 1 l Y $end
$upscope $end
$scope module _117_ $end
$var wire 1 7" A $end
$var wire 1 P B $end
$var wire 1 k Y $end
$upscope $end
$scope module _118_ $end
$var wire 1 l A $end
$var wire 1 k B $end
$var wire 1 j Y $end
$upscope $end
$scope module _119_ $end
$var wire 1 8" A $end
$var wire 1 M B $end
$var wire 1 i Y $end
$upscope $end
$scope module _120_ $end
$var wire 1 9" A $end
$var wire 1 K B $end
$var wire 1 h Y $end
$upscope $end
$scope module _121_ $end
$var wire 1 i A $end
$var wire 1 h B $end
$var wire 1 g Y $end
$upscope $end
$scope module _122_ $end
$var wire 1 j A $end
$var wire 1 g B $end
$var wire 1 f Y $end
$upscope $end
$scope module _123_ $end
$var wire 1 T A $end
$var wire 1 f B $end
$var wire 1 :" Y $end
$upscope $end
$scope module _124_ $end
$var wire 1 ;" A $end
$var wire 1 S B $end
$var wire 1 e Y $end
$upscope $end
$scope module _125_ $end
$var wire 1 <" A $end
$var wire 1 P B $end
$var wire 1 d Y $end
$upscope $end
$scope module _126_ $end
$var wire 1 e A $end
$var wire 1 d B $end
$var wire 1 c Y $end
$upscope $end
$scope module _127_ $end
$var wire 1 =" A $end
$var wire 1 M B $end
$var wire 1 b Y $end
$upscope $end
$scope module _128_ $end
$var wire 1 >" A $end
$var wire 1 K B $end
$var wire 1 a Y $end
$upscope $end
$scope module _129_ $end
$var wire 1 b A $end
$var wire 1 a B $end
$var wire 1 ` Y $end
$upscope $end
$scope module _130_ $end
$var wire 1 c A $end
$var wire 1 ` B $end
$var wire 1 _ Y $end
$upscope $end
$scope module _131_ $end
$var wire 1 T A $end
$var wire 1 _ B $end
$var wire 1 ?" Y $end
$upscope $end
$scope module _132_ $end
$var wire 1 @" A $end
$var wire 1 S B $end
$var wire 1 ^ Y $end
$upscope $end
$scope module _133_ $end
$var wire 1 A" A $end
$var wire 1 P B $end
$var wire 1 ] Y $end
$upscope $end
$scope module _134_ $end
$var wire 1 ^ A $end
$var wire 1 ] B $end
$var wire 1 \ Y $end
$upscope $end
$scope module _135_ $end
$var wire 1 B" A $end
$var wire 1 M B $end
$var wire 1 [ Y $end
$upscope $end
$scope module _136_ $end
$var wire 1 C" A $end
$var wire 1 K B $end
$var wire 1 Z Y $end
$upscope $end
$scope module _137_ $end
$var wire 1 [ A $end
$var wire 1 Z B $end
$var wire 1 Y Y $end
$upscope $end
$scope module _138_ $end
$var wire 1 \ A $end
$var wire 1 Y B $end
$var wire 1 X Y $end
$upscope $end
$scope module _139_ $end
$var wire 1 T A $end
$var wire 1 X B $end
$var wire 1 D" Y $end
$upscope $end
$scope module _140_ $end
$var wire 1 E" A $end
$var wire 1 T B $end
$var wire 1 F" Y $end
$upscope $end
$scope module _141_ $end
$var wire 1 R B $end
$var wire 1 W Y $end
$var wire 1 # A $end
$upscope $end
$scope module _142_ $end
$var wire 1 P A $end
$var wire 1 W B $end
$var wire 1 G" Y $end
$upscope $end
$scope module _143_ $end
$var wire 1 p Y $end
$var wire 1 # A $end
$upscope $end
$scope module _144_ $end
$var wire 1 H" D $end
$var wire 1 & C $end
$var reg 1 I" Q $end
$upscope $end
$scope module _145_ $end
$var wire 1 J" D $end
$var wire 1 & C $end
$var reg 1 K" Q $end
$upscope $end
$scope module _146_ $end
$var wire 1 L" D $end
$var wire 1 & C $end
$var reg 1 M" Q $end
$upscope $end
$scope module _147_ $end
$var wire 1 N" D $end
$var wire 1 & C $end
$var reg 1 O" Q $end
$upscope $end
$scope module _148_ $end
$var wire 1 P" D $end
$var wire 1 & C $end
$var reg 1 Q" Q $end
$upscope $end
$scope module _149_ $end
$var wire 1 R" D $end
$var wire 1 & C $end
$var reg 1 S" Q $end
$upscope $end
$scope module _150_ $end
$var wire 1 T" D $end
$var wire 1 & C $end
$var reg 1 U" Q $end
$upscope $end
$scope module _151_ $end
$var wire 1 V" D $end
$var wire 1 & C $end
$var reg 1 W" Q $end
$upscope $end
$scope module _152_ $end
$var wire 1 X" D $end
$var wire 1 & C $end
$var reg 1 Y" Q $end
$upscope $end
$scope module _153_ $end
$var wire 1 Z" D $end
$var wire 1 & C $end
$var reg 1 [" Q $end
$upscope $end
$scope module _154_ $end
$var wire 1 p D $end
$var wire 1 & C $end
$var reg 1 \" Q $end
$upscope $end
$upscope $end
$scope module probador $end
$var wire 8 ]" data_out [7:0] $end
$var wire 1 " valid_out $end
$var reg 1 ' clk $end
$var reg 1 & clk_4f $end
$var reg 32 ^" data_in [31:0] $end
$var reg 1 $ sel $end
$var reg 1 # valid_in $end
$upscope $end
$upscope $end
$scope module DFFSR $end
$var wire 1 _" C $end
$var wire 1 `" D $end
$var wire 1 a" R $end
$var wire 1 b" S $end
$var reg 1 c" Q $end
$upscope $end
$enddefinitions $end
#0
$dumpvars
xc"
zb"
za"
z`"
z_"
b0 ^"
bx ]"
x\"
x["
0Z"
xY"
0X"
xW"
0V"
xU"
0T"
xS"
0R"
xQ"
0P"
xO"
0N"
xM"
0L"
xK"
0J"
xI"
0H"
0G"
0F"
xE"
0D"
0C"
0B"
0A"
0@"
0?"
0>"
0="
0<"
0;"
0:"
09"
08"
07"
06"
05"
04"
03"
02"
01"
00"
0/"
0."
0-"
0,"
0+"
0*"
0)"
0("
0'"
0&"
0%"
0$"
0#"
0""
0!"
0~
x}
0|
x{
0z
xy
xx
0w
xv
xu
xt
xs
b0 r
b0 q
0p
1o
0n
1m
1l
1k
0j
1i
1h
0g
1f
1e
1d
0c
1b
1a
0`
1_
1^
1]
0\
1[
1Z
0Y
1X
1W
xV
xU
1T
xS
xR
1Q
xP
1O
0N
xM
1L
xK
1J
0I
1H
1G
1F
0E
1D
1C
0B
1A
1@
1?
0>
1=
1<
0;
1:
19
18
07
16
15
04
13
12
11
00
1/
b0 .
bx -
bx ,
x+
bx *
bx )
b0 (
0'
0&
b0 %
x$
0#
x"
bx !
$end
#20
0K
0S
0M
1P
1R
1V
1U
0E"
0{
0x
0u
0s
0}
0y
0v
0t
b0 *
0"
0+
b0 !
b0 ,
b0 ]"
b0 )
0I"
b0 -
0K"
0M"
0O"
0Q"
0S"
0U"
0W"
0Y"
0["
0\"
1&
#40
0&
#60
1&
#80
1Z"
1X"
1V"
1T"
1R"
1P"
1N"
1L"
1D"
1?"
1:"
15"
10"
1+"
1&"
b11111111 r
1!"
0X
0_
0f
0m
03
0:
0A
0H
1\
1c
1j
10
17
1>
1E
1N
1H"
0]
0d
0k
01
08
0?
0G
0O
b1 q
1F"
0W
1C"
1B"
1A"
1@"
1>"
1="
1<"
1;"
19"
18"
17"
16"
14"
13"
12"
11"
1/"
1."
1-"
1,"
1*"
1)"
1("
1'"
1%"
1$"
1#"
1""
1~
1|
1z
1w
0T
b11111111111111111111111111111111 %
b11111111111111111111111111111111 (
b11111111111111111111111111111111 .
b11111111111111111111111111111111 ^"
1p
1#
0&
1'
#100
1I
1B
1;
14
1n
1g
1`
1Y
0N
0E
0>
07
00
0j
0c
0\
1J"
0J
0C
0<
05
0o
0h
0a
0Z
1O
1G
1?
18
11
1k
1d
1]
1G"
0H"
1K
b10 q
0F"
0P
0V
1E"
1{
1x
1u
1s
b1 *
1+
b11111111 )
b1 -
1I"
1M"
1O"
1Q"
1S"
1U"
1W"
1Y"
b11111111 !
b11111111 ,
b11111111 ]"
1["
1"
1\"
1&
#120
0&
#140
1E
0B
0L
0F
0=
06
0/
0i
0b
0[
1J
1C
1<
15
1o
1h
1a
1Z
1M
1H"
0K
b11 q
1F"
0U
1V
1}
1y
1v
1t
0E"
0{
0x
0u
0s
1K"
b10 -
0I"
b10 *
1&
#160
0&
0'
#180
0J"
1N
1B
1>
17
10
1j
1c
1\
0I
0E
0;
04
0n
0g
0`
0Y
0G"
0Q
0D
0@
09
02
0l
0e
0^
1L
1F
1=
16
1/
1i
1b
1[
1W
0H"
1S
b0 q
0F"
0M
0R
0V
1E"
1{
1x
1u
1s
b11 *
b11 -
1I"
1&
#200
0&
#220
0B
0I
0;
04
0n
0g
0`
0Y
1E
1Q
1D
1@
19
12
1l
1e
1^
1L
1F
1=
16
1/
1i
1b
1[
0O
0G
0?
08
01
0k
0d
0]
0W
1H"
0S
b1 q
1F"
0M
1P
1R
1U
1V
0}
0y
0v
0t
0E"
0{
0x
0u
0s
0K"
b0 -
0I"
b0 *
1&
#240
0V"
0N"
0:"
b11011101 r
0&"
1f
1A
0j
0E
1k
1G
09"
08"
07"
06"
0%"
0$"
0#"
0""
b11011101110111011101110111011101 %
b11011101110111011101110111011101 (
b11011101110111011101110111011101 .
b11011101110111011101110111011101 ^"
0&
1'
#260
1I
1;
14
1n
1`
1Y
0N
0>
07
00
0c
0\
1J"
0J
0<
05
0o
0a
0Z
1O
1?
18
11
1d
1]
1G"
0H"
1K
b10 q
0F"
0P
0V
1E"
1{
1x
1u
1s
b1 *
b11011101 )
b1 -
1I"
0O"
b11011101 !
b11011101 ,
b11011101 ]"
0W"
1&
#280
0&
#300
0L
0=
06
0/
0b
0[
1J
1<
15
1o
1a
1Z
1M
1H"
0K
b11 q
1F"
0U
1V
1}
1y
1v
1t
0E"
0{
0x
0u
0s
1K"
b10 -
0I"
b10 *
1&
#320
0&
0'
#340
0J"
1N
1>
17
10
1c
1\
0I
0;
04
0n
0`
0Y
0G"
0Q
0@
09
02
0e
0^
1L
1=
16
1/
1b
1[
1W
0H"
1S
b0 q
0F"
0M
0R
0V
1E"
1{
1x
1u
1s
b11 *
b11 -
1I"
1&
#360
0&
#380
0I
0;
04
0n
0`
0Y
1Q
1@
19
12
1e
1^
1L
1=
16
1/
1b
1[
0O
0?
08
01
0d
0]
0W
1H"
0S
b1 q
1F"
0M
1P
1R
1U
1V
0}
0y
0v
0t
0E"
0{
0x
0u
0s
0K"
b0 -
0I"
b0 *
1&
#400
1X
1_
1m
13
1:
1H
0\
0c
00
07
0>
0N
0L"
0P"
0R"
0T"
0X"
0Z"
0H"
1]
1d
11
18
1?
1O
0!"
0+"
00"
05"
0?"
b0 r
0D"
b0 q
0F"
1W
0C"
0B"
0A"
0@"
0>"
0="
0<"
0;"
04"
03"
02"
01"
0/"
0."
0-"
0,"
0*"
0)"
0("
0'"
1$"
0~
0|
0z
1T
b11 %
b11 (
b11 .
b11 ^"
0p
0#
0&
1'
#420
0+
b0 )
0M"
0Q"
0S"
0U"
0Y"
b0 !
b0 ,
b0 ]"
0["
0"
0\"
1&
#440
0&
#460
1&
#480
0&
0'
#500
1&
#520
0&
#540
1&
#560
1H"
b1 q
1F"
0W
0T
1p
1#
0&
1'
#580
1J"
1G"
0H"
1K
b10 q
0F"
0P
0V
1E"
1{
1x
1u
1s
b1 *
1+
b1 -
1I"
1"
1\"
1&
#600
0&
#620
1M
1H"
0K
b11 q
1F"
0U
1V
1}
1y
1v
1t
0E"
0{
0x
0u
0s
1K"
b10 -
0I"
b10 *
1&
#640
0&
0'
#660
1L"
1N"
1!"
b11 r
1&"
0H
0A
0J"
1N
1B
0G"
0Q
0D
1W
0H"
1S
b0 q
0F"
0M
0R
0V
1E"
1{
1x
1u
1s
b11 *
b11 -
1I"
1&
#680
0&
#700
0L"
0N"
0!"
b0 r
0&"
1H
1A
0N
0B
1Q
1D
0W
1H"
0S
b1 q
1F"
0M
1P
1R
1U
1V
0}
0y
0v
0t
0E"
0{
0x
0u
0s
1O"
1M"
0K"
b0 -
0I"
b0 *
b11 !
b11 ,
b11 ]"
b11 )
1&
#720
0$"
0w
b0 %
b0 (
b0 .
b0 ^"
0&
1'
#740
1J"
1G"
0H"
1K
b10 q
0F"
0P
0V
1E"
1{
1x
1u
1s
b1 *
b0 )
b1 -
1I"
0M"
b0 !
b0 ,
b0 ]"
0O"
1&
#760
0&
#780
1M
1H"
0K
b11 q
1F"
0U
1V
1}
1y
1v
1t
0E"
0{
0x
0u
0s
1K"
b10 -
0I"
b10 *
1&
#800
0&
0'
#820
0J"
0G"
1W
0H"
1S
b0 q
0F"
0M
0R
0V
1E"
1{
1x
1u
1s
b11 *
b11 -
1I"
1&
#840
0&
#860
0W
1H"
0S
b1 q
1F"
0M
1P
1R
1U
1V
0}
0y
0v
0t
0E"
0{
0x
0u
0s
0K"
b0 -
0I"
b0 *
1&
#880
1Z"
1X"
1V"
1T"
1R"
1P"
1N"
1L"
1D"
1?"
1:"
15"
10"
1+"
1&"
b11111111 r
1!"
0X
0_
0f
0m
03
0:
0A
0H
1\
1c
1j
10
17
1>
1E
1N
0]
0d
0k
01
08
0?
0G
0O
1C"
1B"
1A"
1@"
1>"
1="
1<"
1;"
19"
18"
17"
16"
14"
13"
12"
11"
1/"
1."
1-"
1,"
1*"
1)"
1("
1'"
1%"
1$"
1#"
1""
1~
1|
1z
1w
b11111111111111111111111111111111 %
b11111111111111111111111111111111 (
b11111111111111111111111111111111 .
b11111111111111111111111111111111 ^"
0&
1'
#900
1I
1B
1;
14
1n
1g
1`
1Y
0N
0E
0>
07
00
0j
0c
0\
1J"
0J
0C
0<
05
0o
0h
0a
0Z
1O
1G
1?
18
11
1k
1d
1]
1G"
0H"
1K
b10 q
0F"
0P
0V
1E"
1{
1x
1u
1s
b1 *
b11111111 )
b1 -
1I"
1M"
1O"
1Q"
1S"
1U"
1W"
1Y"
b11111111 !
b11111111 ,
b11111111 ]"
1["
1&
#920
0&
#940
1E
0B
0L
0F
0=
06
0/
0i
0b
0[
1J
1C
1<
15
1o
1h
1a
1Z
1M
1H"
0K
b11 q
1F"
0U
1V
1}
1y
1v
1t
0E"
0{
0x
0u
0s
1K"
b10 -
0I"
b10 *
1&
#960
0&
0'
#980
0J"
1N
1B
1>
17
10
1j
1c
1\
0I
0E
0;
04
0n
0g
0`
0Y
0G"
0Q
0D
0@
09
02
0l
0e
0^
1L
1F
1=
16
1/
1i
1b
1[
1W
0H"
1S
b0 q
0F"
0M
0R
0V
1E"
1{
1x
1u
1s
b11 *
b11 -
1I"
1&
#1000
0&
#1020
0B
0I
0;
04
0n
0g
0`
0Y
1E
1Q
1D
1@
19
12
1l
1e
1^
1L
1F
1=
16
1/
1i
1b
1[
0O
0G
0?
08
01
0k
0d
0]
0W
1H"
0S
b1 q
1F"
0M
1P
1R
1U
1V
0}
0y
0v
0t
0E"
0{
0x
0u
0s
0K"
b0 -
0I"
b0 *
1&
#1040
0V"
0N"
0:"
b11011101 r
0&"
1f
1A
0j
0E
1k
1G
09"
08"
07"
06"
0%"
0$"
0#"
0""
b11011101110111011101110111011101 %
b11011101110111011101110111011101 (
b11011101110111011101110111011101 .
b11011101110111011101110111011101 ^"
0&
1'
#1060
1I
1;
14
1n
1`
1Y
0N
0>
07
00
0c
0\
1J"
0J
0<
05
0o
0a
0Z
1O
1?
18
11
1d
1]
1G"
0H"
1K
b10 q
0F"
0P
0V
1E"
1{
1x
1u
1s
b1 *
b11011101 )
b1 -
1I"
0O"
b11011101 !
b11011101 ,
b11011101 ]"
0W"
1&
#1080
0&
#1100
0L
0=
06
0/
0b
0[
1J
1<
15
1o
1a
1Z
1M
1H"
0K
b11 q
1F"
0U
1V
1}
1y
1v
1t
0E"
0{
0x
0u
0s
1K"
b10 -
0I"
b10 *
1&
#1120
0&
0'
#1140
0J"
1N
1>
17
10
1c
1\
0I
0;
04
0n
0`
0Y
0G"
0Q
0@
09
02
0e
0^
1L
1=
16
1/
1b
1[
1W
0H"
1S
b0 q
0F"
0M
0R
0V
1E"
1{
1x
1u
1s
b11 *
b11 -
1I"
1&
#1160
0&
#1180
0I
0;
04
0n
0`
0Y
1Q
1@
19
12
1e
1^
1L
1=
16
1/
1b
1[
0O
0?
08
01
0d
0]
0W
1H"
0S
b1 q
1F"
0M
1P
1R
1U
1V
0}
0y
0v
0t
0E"
0{
0x
0u
0s
0K"
b0 -
0I"
b0 *
1&
#1200
1X
1_
1m
13
1:
1H
0\
0c
00
07
0>
0N
0L"
0P"
0R"
0T"
0X"
0Z"
0H"
1]
1d
11
18
1?
1O
0!"
0+"
00"
05"
0?"
b0 r
0D"
b0 q
0F"
1W
0C"
0B"
0A"
0@"
0>"
0="
0<"
0;"
04"
03"
02"
01"
0/"
0."
0-"
0,"
0*"
0)"
0("
0'"
1$"
0~
0|
0z
1T
b11 %
b11 (
b11 .
b11 ^"
0p
0#
0&
1'
#1220
0+
b0 )
0M"
0Q"
0S"
0U"
0Y"
b0 !
b0 ,
b0 ]"
0["
0"
0\"
1&
#1240
0&
#1260
1&
#1280
0&
0'
#1300
1&
#1320
0&
#1340
1&
#1360
1H"
b1 q
1F"
0W
0T
1p
1#
0&
1'
#1380
1J"
1G"
0H"
1K
b10 q
0F"
0P
0V
1E"
1{
1x
1u
1s
b1 *
1+
b1 -
1I"
1"
1\"
1&
#1400
0&
#1420
1M
1H"
0K
b11 q
1F"
0U
1V
1}
1y
1v
1t
0E"
0{
0x
0u
0s
1K"
b10 -
0I"
b10 *
1&
#1440
0&
0'
#1460
1L"
1N"
1!"
b11 r
1&"
0H
0A
0J"
1N
1B
0G"
0Q
0D
1W
0H"
1S
b0 q
0F"
0M
0R
0V
1E"
1{
1x
1u
1s
b11 *
b11 -
1I"
1&
#1480
0&
#1500
0L"
0N"
0!"
b0 r
0&"
1H
1A
0N
0B
1Q
1D
0W
1H"
0S
b1 q
1F"
0M
1P
1R
1U
1V
0}
0y
0v
0t
0E"
0{
0x
0u
0s
1O"
1M"
0K"
b0 -
0I"
b0 *
b11 !
b11 ,
b11 ]"
b11 )
1&
#1520
0$"
0w
b0 %
b0 (
b0 .
b0 ^"
0&
1'
