32b_to_8b/conv_32b_to_8b.vcd
$date
	Tue Oct  5 16:02:44 2021
$end
$version
	Icarus Verilog
$end
$timescale
	100ps
$end
$scope module BancoPruebas $end
$var wire 8 ! data_out [7:0] $end
$var wire 1 " valid_out $end
$var wire 1 # valid_in $end
$var wire 1 $ sel $end
$var wire 32 % data_in [31:0] $end
$var wire 1 & clk_4f $end
$var wire 1 ' clk $end
$scope module conv_32b_to_8b_Coductual $end
$var wire 1 # valid_in $end
$var wire 32 ( data_in [31:0] $end
$var wire 1 & clk_4f $end
$var wire 1 ' clk $end
$var reg 8 ) data_out [7:0] $end
$var reg 2 * sel [1:0] $end
$var reg 1 + valid_out $end
$upscope $end
$scope module conv_32b_to_8b_Estructural $end
$var wire 8 , data_out [7:0] $end
$var wire 1 " valid_out $end
$var wire 1 # valid_in $end
$var wire 2 - sel [1:0] $end
$var wire 32 . data_in [31:0] $end
$var wire 1 & clk_4f $end
$var wire 1 ' clk $end
$var wire 1 / _075_ $end
$var wire 1 0 _074_ $end
$var wire 1 1 _073_ $end
$var wire 1 2 _072_ $end
$var wire 1 3 _071_ $end
$var wire 1 4 _070_ $end
$var wire 1 5 _069_ $end
$var wire 1 6 _068_ $end
$var wire 1 7 _067_ $end
$var wire 1 8 _066_ $end
$var wire 1 9 _065_ $end
$var wire 1 : _064_ $end
$var wire 1 ; _063_ $end
$var wire 1 < _062_ $end
$var wire 1 = _061_ $end
$var wire 1 > _060_ $end
$var wire 1 ? _059_ $end
$var wire 1 @ _058_ $end
$var wire 1 A _057_ $end
$var wire 1 B _056_ $end
$var wire 1 C _055_ $end
$var wire 1 D _054_ $end
$var wire 1 E _053_ $end
$var wire 1 F _052_ $end
$var wire 1 G _051_ $end
$var wire 1 H _050_ $end
$var wire 1 I _049_ $end
$var wire 1 J _048_ $end
$var wire 1 K _047_ $end
$var wire 1 L _046_ $end
$var wire 1 M _045_ $end
$var wire 1 N _044_ $end
$var wire 1 O _043_ $end
$var wire 1 P _042_ $end
$var wire 1 Q _041_ $end
$var wire 1 R _040_ $end
$var wire 1 S _039_ $end
$var wire 1 T _038_ $end
$var wire 1 U _037_ $end
$var wire 1 V _036_ $end
$var wire 1 W _035_ $end
$var wire 1 X _034_ $end
$var wire 1 Y _033_ $end
$var wire 1 Z _032_ $end
$var wire 1 [ _031_ $end
$var wire 1 \ _030_ $end
$var wire 1 ] _029_ $end
$var wire 1 ^ _028_ $end
$var wire 1 _ _027_ $end
$var wire 1 ` _026_ $end
$var wire 1 a _025_ $end
$var wire 1 b _024_ $end
$var wire 1 c _023_ $end
$var wire 1 d _022_ $end
$var wire 1 e _021_ $end
$var wire 1 f _020_ $end
$var wire 1 g _019_ $end
$var wire 1 h _018_ $end
$var wire 1 i _017_ $end
$var wire 1 j _016_ $end
$var wire 1 k _015_ $end
$var wire 1 l _014_ $end
$var wire 1 m _013_ $end
$var wire 1 n _012_ $end
$var wire 1 o _011_ $end
$var wire 1 p _010_ $end
$var wire 1 q _009_ $end
$var wire 1 r _008_ $end
$var wire 1 s _007_ $end
$var wire 1 t _006_ $end
$var wire 1 u _005_ $end
$var wire 1 v _004_ $end
$var wire 1 w _003_ $end
$var wire 1 x _002_ $end
$var wire 1 y _001_ $end
$var wire 1 z _000_ $end
$scope module _076_ $end
$var wire 1 V Y $end
$var wire 1 # A $end
$upscope $end
$scope module _077_ $end
$var wire 1 { A $end
$var wire 1 U Y $end
$upscope $end
$scope module _078_ $end
$var wire 1 | A $end
$var wire 1 T Y $end
$upscope $end
$scope module _079_ $end
$var wire 1 } A $end
$var wire 1 T B $end
$var wire 1 S Y $end
$upscope $end
$scope module _080_ $end
$var wire 1 ~ A $end
$var wire 1 S B $end
$var wire 1 R Y $end
$upscope $end
$scope module _081_ $end
$var wire 1 U A $end
$var wire 1 !" B $end
$var wire 1 Q Y $end
$upscope $end
$scope module _082_ $end
$var wire 1 "" A $end
$var wire 1 Q B $end
$var wire 1 P Y $end
$upscope $end
$scope module _083_ $end
$var wire 1 R A $end
$var wire 1 P B $end
$var wire 1 O Y $end
$upscope $end
$scope module _084_ $end
$var wire 1 #" A $end
$var wire 1 $" B $end
$var wire 1 N Y $end
$upscope $end
$scope module _085_ $end
$var wire 1 %" A $end
$var wire 1 N B $end
$var wire 1 M Y $end
$upscope $end
$scope module _086_ $end
$var wire 1 U A $end
$var wire 1 T B $end
$var wire 1 L Y $end
$upscope $end
$scope module _087_ $end
$var wire 1 &" A $end
$var wire 1 '" B $end
$var wire 1 K Y $end
$upscope $end
$scope module _088_ $end
$var wire 1 (" A $end
$var wire 1 L B $end
$var wire 1 J Y $end
$upscope $end
$scope module _089_ $end
$var wire 1 M A $end
$var wire 1 J B $end
$var wire 1 I Y $end
$upscope $end
$scope module _090_ $end
$var wire 1 O A $end
$var wire 1 I B $end
$var wire 1 H Y $end
$upscope $end
$scope module _091_ $end
$var wire 1 V A $end
$var wire 1 H B $end
$var wire 1 q Y $end
$upscope $end
$scope module _092_ $end
$var wire 1 )" A $end
$var wire 1 S B $end
$var wire 1 G Y $end
$upscope $end
$scope module _093_ $end
$var wire 1 *" A $end
$var wire 1 Q B $end
$var wire 1 F Y $end
$upscope $end
$scope module _094_ $end
$var wire 1 G A $end
$var wire 1 F B $end
$var wire 1 E Y $end
$upscope $end
$scope module _095_ $end
$var wire 1 +" A $end
$var wire 1 N B $end
$var wire 1 D Y $end
$upscope $end
$scope module _096_ $end
$var wire 1 ," A $end
$var wire 1 L B $end
$var wire 1 C Y $end
$upscope $end
$scope module _097_ $end
$var wire 1 D A $end
$var wire 1 C B $end
$var wire 1 B Y $end
$upscope $end
$scope module _098_ $end
$var wire 1 E A $end
$var wire 1 B B $end
$var wire 1 A Y $end
$upscope $end
$scope module _099_ $end
$var wire 1 V A $end
$var wire 1 A B $end
$var wire 1 r Y $end
$upscope $end
$scope module _100_ $end
$var wire 1 -" A $end
$var wire 1 S B $end
$var wire 1 @ Y $end
$upscope $end
$scope module _101_ $end
$var wire 1 ." A $end
$var wire 1 Q B $end
$var wire 1 ? Y $end
$upscope $end
$scope module _102_ $end
$var wire 1 @ A $end
$var wire 1 ? B $end
$var wire 1 > Y $end
$upscope $end
$scope module _103_ $end
$var wire 1 /" A $end
$var wire 1 N B $end
$var wire 1 = Y $end
$upscope $end
$scope module _104_ $end
$var wire 1 0" A $end
$var wire 1 L B $end
$var wire 1 < Y $end
$upscope $end
$scope module _105_ $end
$var wire 1 = A $end
$var wire 1 < B $end
$var wire 1 ; Y $end
$upscope $end
$scope module _106_ $end
$var wire 1 > A $end
$var wire 1 ; B $end
$var wire 1 : Y $end
$upscope $end
$scope module _107_ $end
$var wire 1 V A $end
$var wire 1 : B $end
$var wire 1 s Y $end
$upscope $end
$scope module _108_ $end
$var wire 1 1" A $end
$var wire 1 S B $end
$var wire 1 9 Y $end
$upscope $end
$scope module _109_ $end
$var wire 1 2" A $end
$var wire 1 Q B $end
$var wire 1 8 Y $end
$upscope $end
$scope module _110_ $end
$var wire 1 9 A $end
$var wire 1 8 B $end
$var wire 1 7 Y $end
$upscope $end
$scope module _111_ $end
$var wire 1 3" A $end
$var wire 1 N B $end
$var wire 1 6 Y $end
$upscope $end
$scope module _112_ $end
$var wire 1 4" A $end
$var wire 1 L B $end
$var wire 1 5 Y $end
$upscope $end
$scope module _113_ $end
$var wire 1 6 A $end
$var wire 1 5 B $end
$var wire 1 4 Y $end
$upscope $end
$scope module _114_ $end
$var wire 1 7 A $end
$var wire 1 4 B $end
$var wire 1 3 Y $end
$upscope $end
$scope module _115_ $end
$var wire 1 V A $end
$var wire 1 3 B $end
$var wire 1 t Y $end
$upscope $end
$scope module _116_ $end
$var wire 1 5" A $end
$var wire 1 S B $end
$var wire 1 2 Y $end
$upscope $end
$scope module _117_ $end
$var wire 1 6" A $end
$var wire 1 Q B $end
$var wire 1 1 Y $end
$upscope $end
$scope module _118_ $end
$var wire 1 2 A $end
$var wire 1 1 B $end
$var wire 1 0 Y $end
$upscope $end
$scope module _119_ $end
$var wire 1 7" A $end
$var wire 1 N B $end
$var wire 1 / Y $end
$upscope $end
$scope module _120_ $end
$var wire 1 8" A $end
$var wire 1 L B $end
$var wire 1 o Y $end
$upscope $end
$scope module _121_ $end
$var wire 1 / A $end
$var wire 1 o B $end
$var wire 1 n Y $end
$upscope $end
$scope module _122_ $end
$var wire 1 0 A $end
$var wire 1 n B $end
$var wire 1 m Y $end
$upscope $end
$scope module _123_ $end
$var wire 1 V A $end
$var wire 1 m B $end
$var wire 1 u Y $end
$upscope $end
$scope module _124_ $end
$var wire 1 9" A $end
$var wire 1 S B $end
$var wire 1 l Y $end
$upscope $end
$scope module _125_ $end
$var wire 1 :" A $end
$var wire 1 Q B $end
$var wire 1 k Y $end
$upscope $end
$scope module _126_ $end
$var wire 1 l A $end
$var wire 1 k B $end
$var wire 1 j Y $end
$upscope $end
$scope module _127_ $end
$var wire 1 ;" A $end
$var wire 1 N B $end
$var wire 1 i Y $end
$upscope $end
$scope module _128_ $end
$var wire 1 <" A $end
$var wire 1 L B $end
$var wire 1 h Y $end
$upscope $end
$scope module _129_ $end
$var wire 1 i A $end
$var wire 1 h B $end
$var wire 1 g Y $end
$upscope $end
$scope module _130_ $end
$var wire 1 j A $end
$var wire 1 g B $end
$var wire 1 f Y $end
$upscope $end
$scope module _131_ $end
$var wire 1 V A $end
$var wire 1 f B $end
$var wire 1 v Y $end
$upscope $end
$scope module _132_ $end
$var wire 1 =" A $end
$var wire 1 S B $end
$var wire 1 e Y $end
$upscope $end
$scope module _133_ $end
$var wire 1 >" A $end
$var wire 1 Q B $end
$var wire 1 d Y $end
$upscope $end
$scope module _134_ $end
$var wire 1 e A $end
$var wire 1 d B $end
$var wire 1 c Y $end
$upscope $end
$scope module _135_ $end
$var wire 1 ?" A $end
$var wire 1 N B $end
$var wire 1 b Y $end
$upscope $end
$scope module _136_ $end
$var wire 1 @" A $end
$var wire 1 L B $end
$var wire 1 a Y $end
$upscope $end
$scope module _137_ $end
$var wire 1 b A $end
$var wire 1 a B $end
$var wire 1 ` Y $end
$upscope $end
$scope module _138_ $end
$var wire 1 c A $end
$var wire 1 ` B $end
$var wire 1 _ Y $end
$upscope $end
$scope module _139_ $end
$var wire 1 V A $end
$var wire 1 _ B $end
$var wire 1 w Y $end
$upscope $end
$scope module _140_ $end
$var wire 1 A" A $end
$var wire 1 S B $end
$var wire 1 ^ Y $end
$upscope $end
$scope module _141_ $end
$var wire 1 B" A $end
$var wire 1 Q B $end
$var wire 1 ] Y $end
$upscope $end
$scope module _142_ $end
$var wire 1 ^ A $end
$var wire 1 ] B $end
$var wire 1 \ Y $end
$upscope $end
$scope module _143_ $end
$var wire 1 C" A $end
$var wire 1 N B $end
$var wire 1 [ Y $end
$upscope $end
$scope module _144_ $end
$var wire 1 D" A $end
$var wire 1 L B $end
$var wire 1 Z Y $end
$upscope $end
$scope module _145_ $end
$var wire 1 [ A $end
$var wire 1 Z B $end
$var wire 1 Y Y $end
$upscope $end
$scope module _146_ $end
$var wire 1 \ A $end
$var wire 1 Y B $end
$var wire 1 X Y $end
$upscope $end
$scope module _147_ $end
$var wire 1 V A $end
$var wire 1 X B $end
$var wire 1 x Y $end
$upscope $end
$scope module _148_ $end
$var wire 1 K B $end
$var wire 1 W Y $end
$var wire 1 # A $end
$upscope $end
$scope module _149_ $end
$var wire 1 N A $end
$var wire 1 W B $end
$var wire 1 y Y $end
$upscope $end
$scope module _150_ $end
$var wire 1 V A $end
$var wire 1 E" B $end
$var wire 1 z Y $end
$upscope $end
$scope module _151_ $end
$var wire 1 p Y $end
$var wire 1 # A $end
$upscope $end
$scope module _152_ $end
$var wire 1 z D $end
$var wire 1 & C $end
$var reg 1 F" Q $end
$upscope $end
$scope module _153_ $end
$var wire 1 y D $end
$var wire 1 & C $end
$var reg 1 G" Q $end
$upscope $end
$scope module _154_ $end
$var wire 1 x D $end
$var wire 1 & C $end
$var reg 1 H" Q $end
$upscope $end
$scope module _155_ $end
$var wire 1 w D $end
$var wire 1 & C $end
$var reg 1 I" Q $end
$upscope $end
$scope module _156_ $end
$var wire 1 v D $end
$var wire 1 & C $end
$var reg 1 J" Q $end
$upscope $end
$scope module _157_ $end
$var wire 1 u D $end
$var wire 1 & C $end
$var reg 1 K" Q $end
$upscope $end
$scope module _158_ $end
$var wire 1 t D $end
$var wire 1 & C $end
$var reg 1 L" Q $end
$upscope $end
$scope module _159_ $end
$var wire 1 s D $end
$var wire 1 & C $end
$var reg 1 M" Q $end
$upscope $end
$scope module _160_ $end
$var wire 1 r D $end
$var wire 1 & C $end
$var reg 1 N" Q $end
$upscope $end
$scope module _161_ $end
$var wire 1 q D $end
$var wire 1 & C $end
$var reg 1 O" Q $end
$upscope $end
$scope module _162_ $end
$var wire 1 p D $end
$var wire 1 & C $end
$var reg 1 P" Q $end
$upscope $end
$upscope $end
$scope module probador $end
$var wire 8 Q" data_out [7:0] $end
$var wire 1 " valid_out $end
$var reg 1 ' clk $end
$var reg 1 & clk_4f $end
$var reg 32 R" data_in [31:0] $end
$var reg 1 $ sel $end
$var reg 1 # valid_in $end
$upscope $end
$upscope $end
$scope module DFFSR $end
$var wire 1 S" C $end
$var wire 1 T" D $end
$var wire 1 U" R $end
$var wire 1 V" S $end
$var reg 1 W" Q $end
$upscope $end
$enddefinitions $end
#0
$dumpvars
xW"
zV"
zU"
zT"
zS"
b0 R"
bx Q"
xP"
xO"
xN"
xM"
xL"
xK"
xJ"
xI"
xH"
xG"
xF"
xE"
0D"
0C"
0B"
0A"
0@"
0?"
0>"
0="
0<"
0;"
0:"
09"
08"
07"
06"
05"
04"
03"
02"
01"
00"
0/"
0."
0-"
0,"
0+"
0*"
0)"
0("
x'"
x&"
0%"
x$"
x#"
0""
x!"
0~
x}
x|
x{
0z
0y
0x
0w
0v
0u
0t
0s
0r
0q
0p
1o
0n
1m
1l
1k
0j
1i
1h
0g
1f
1e
1d
0c
1b
1a
0`
1_
1^
1]
0\
1[
1Z
0Y
1X
1W
1V
xU
xT
xS
1R
xQ
1P
0O
xN
1M
xL
xK
1J
0I
1H
1G
1F
0E
1D
1C
0B
1A
1@
1?
0>
1=
1<
0;
1:
19
18
07
16
15
04
13
12
11
00
1/
b0 .
bx -
bx ,
x+
bx *
bx )
b0 (
0'
0&
b0 %
x$
0#
x"
bx !
$end
#20
0S
0L
0Q
1K
1N
1T
1U
0E"
0'"
0$"
0!"
0|
0&"
0#"
0}
0{
b0 *
0"
0+
b0 !
b0 ,
b0 Q"
b0 )
0F"
b0 -
0G"
0H"
0I"
0J"
0K"
0L"
0M"
0N"
0O"
0P"
1&
#40
0&
#60
1&
#80
1x
1w
1v
1u
1t
1s
1r
1q
0X
0_
0f
0m
03
0:
0A
0H
1Y
1`
1g
1n
14
1;
1B
1I
0[
0b
0i
0/
06
0=
0D
0M
1z
0W
1D"
1C"
1B"
1A"
1@"
1?"
1>"
1="
1<"
1;"
1:"
19"
18"
17"
16"
15"
14"
13"
12"
11"
10"
1/"
1."
1-"
1,"
1+"
1*"
1)"
1("
1%"
1""
1~
0V
b11111111111111111111111111111111 %
b11111111111111111111111111111111 (
b11111111111111111111111111111111 .
b11111111111111111111111111111111 R"
1p
1#
0&
1'
#100
1O
1E
1>
17
10
1j
1c
1\
0I
0B
0;
04
0n
0g
0`
0Y
0R
0G
0@
09
02
0l
0e
0^
1M
1D
1=
16
1/
1i
1b
1[
1y
1S
0z
0N
0T
1E"
1'"
1$"
1!"
1|
b1 *
1+
b11111111 )
b1 -
1F"
1H"
1I"
1J"
1K"
1L"
1M"
1N"
b11111111 !
b11111111 ,
b11111111 Q"
1O"
1"
1P"
1&
#120
0&
#140
0P
0F
0?
08
01
0k
0d
0]
1R
1G
1@
19
12
1l
1e
1^
1Q
0S
1z
0U
1T
1&"
1#"
1}
1{
0E"
0'"
0$"
0!"
0|
1G"
b10 -
0F"
b10 *
1&
#160
0&
0'
#180
1I
1B
1;
14
1n
1g
1`
1Y
0y
0O
0E
0>
07
00
0j
0c
0\
0J
0C
0<
05
0o
0h
0a
0Z
1W
1P
1F
1?
18
11
1k
1d
1]
1L
0z
0K
0Q
0T
1E"
1'"
1$"
1!"
1|
b11 *
b11 -
1F"
1&
#200
0&
#220
0O
0E
0>
07
00
0j
0c
0\
1J
1C
1<
15
1o
1h
1a
1Z
0W
0M
0D
0=
06
0/
0i
0b
0[
1P
1F
1?
18
11
1k
1d
1]
0L
1z
1K
1N
0Q
1U
1T
0&"
0#"
0}
0{
0E"
0'"
0$"
0!"
0|
0G"
b0 -
0F"
b0 *
1&
#240
0w
0s
1_
1:
0`
0;
1b
1=
0@"
0?"
0>"
0="
00"
0/"
0."
0-"
b11011101110111011101110111011101 %
b11011101110111011101110111011101 (
b11011101110111011101110111011101 .
b11011101110111011101110111011101 R"
0&
1'
#260
1O
1E
17
10
1j
1\
0I
0B
04
0n
0g
0Y
0R
0G
09
02
0l
0^
1M
1D
16
1/
1i
1[
1y
1S
0z
0N
0T
1E"
1'"
1$"
1!"
1|
b1 *
b11011101 )
b1 -
1F"
0I"
b11011101 !
b11011101 ,
b11011101 Q"
0M"
1&
#280
0&
#300
0P
0F
08
01
0k
0]
1R
1G
19
12
1l
1^
1Q
0S
1z
0U
1T
1&"
1#"
1}
1{
0E"
0'"
0$"
0!"
0|
1G"
b10 -
0F"
b10 *
1&
#320
0&
0'
#340
1I
1B
14
1n
1g
1Y
0y
0O
0E
07
00
0j
0\
0J
0C
05
0o
0h
0Z
1W
1P
1F
18
11
1k
1]
1L
0z
0K
0Q
0T
1E"
1'"
1$"
1!"
1|
b11 *
b11 -
1F"
1&
#360
0&
#380
0O
0E
07
00
0j
0\
1J
1C
15
1o
1h
1Z
0W
0M
0D
06
0/
0i
0[
1P
1F
18
11
1k
1]
0L
1z
1K
1N
0Q
1U
1T
0&"
0#"
0}
0{
0E"
0'"
0$"
0!"
0|
0G"
b0 -
0F"
b0 *
1&
#400
1X
1f
1m
13
1A
1H
0Y
0g
0n
04
0B
0I
1[
1i
1/
16
1D
1M
0q
0r
0t
0u
0v
0x
0z
1W
0C"
0B"
0A"
1@"
0<"
0;"
0:"
09"
08"
07"
06"
05"
04"
03"
02"
01"
0,"
0+"
0*"
0)"
0("
0%"
0""
0~
1V
b11 %
b11 (
b11 .
b11 R"
0p
0#
0&
1'
#420
0+
b0 )
0H"
0J"
0K"
0L"
0N"
b0 !
b0 ,
b0 Q"
0O"
0"
0P"
1&
#440
0&
#460
1&
#480
0&
0'
#500
1&
#520
0&
#540
1&
#560
1z
0W
0V
1p
1#
0&
1'
#580
1y
1S
0z
0N
0T
1E"
1'"
1$"
1!"
1|
b1 *
1+
b1 -
1F"
1"
1P"
1&
#600
0&
#620
1Q
0S
1z
0U
1T
1&"
1#"
1}
1{
0E"
0'"
0$"
0!"
0|
1G"
b10 -
0F"
b10 *
1&
#640
0&
0'
#660
1w
1x
0_
0X
1`
1Y
0y
0a
0Z
1W
1L
0z
0K
0Q
0T
1E"
1'"
1$"
1!"
1|
b11 *
b11 -
1F"
1&
#680
0&
#700
0w
0x
1_
1X
0`
0Y
1a
1Z
0W
0L
1z
1K
1N
0Q
1U
1T
0&"
0#"
0}
0{
0E"
0'"
0$"
0!"
0|
1I"
1H"
0G"
b0 -
0F"
b0 *
b11 !
b11 ,
b11 Q"
b11 )
1&
#720
0D"
0@"
b0 %
b0 (
b0 .
b0 R"
0&
1'
#740
1y
1S
0z
0N
0T
1E"
1'"
1$"
1!"
1|
b1 *
b0 )
b1 -
1F"
0H"
b0 !
b0 ,
b0 Q"
0I"
1&
#760
0&
#780
1Q
0S
1z
0U
1T
1&"
1#"
1}
1{
0E"
0'"
0$"
0!"
0|
1G"
b10 -
0F"
b10 *
1&
#800
0&
0'
#820
0y
1W
1L
0z
0K
0Q
0T
1E"
1'"
1$"
1!"
1|
b11 *
b11 -
1F"
1&
#840
0&
#860
0W
0L
1z
1K
1N
0Q
1U
1T
0&"
0#"
0}
0{
0E"
0'"
0$"
0!"
0|
0G"
b0 -
0F"
b0 *
1&
#880
1x
1w
1v
1u
1t
1s
1r
1q
0X
0_
0f
0m
03
0:
0A
0H
1Y
1`
1g
1n
14
1;
1B
1I
0[
0b
0i
0/
06
0=
0D
0M
1D"
1C"
1B"
1A"
1@"
1?"
1>"
1="
1<"
1;"
1:"
19"
18"
17"
16"
15"
14"
13"
12"
11"
10"
1/"
1."
1-"
1,"
1+"
1*"
1)"
1("
1%"
1""
1~
b11111111111111111111111111111111 %
b11111111111111111111111111111111 (
b11111111111111111111111111111111 .
b11111111111111111111111111111111 R"
0&
1'
#900
1O
1E
1>
17
10
1j
1c
1\
0I
0B
0;
04
0n
0g
0`
0Y
0R
0G
0@
09
02
0l
0e
0^
1M
1D
1=
16
1/
1i
1b
1[
1y
1S
0z
0N
0T
1E"
1'"
1$"
1!"
1|
b1 *
b11111111 )
b1 -
1F"
1H"
1I"
1J"
1K"
1L"
1M"
1N"
b11111111 !
b11111111 ,
b11111111 Q"
1O"
1&
#920
0&
#940
0P
0F
0?
08
01
0k
0d
0]
1R
1G
1@
19
12
1l
1e
1^
1Q
0S
1z
0U
1T
1&"
1#"
1}
1{
0E"
0'"
0$"
0!"
0|
1G"
b10 -
0F"
b10 *
1&
#960
0&
0'
#980
1I
1B
1;
14
1n
1g
1`
1Y
0y
0O
0E
0>
07
00
0j
0c
0\
0J
0C
0<
05
0o
0h
0a
0Z
1W
1P
1F
1?
18
11
1k
1d
1]
1L
0z
0K
0Q
0T
1E"
1'"
1$"
1!"
1|
b11 *
b11 -
1F"
1&
#1000
0&
#1020
0O
0E
0>
07
00
0j
0c
0\
1J
1C
1<
15
1o
1h
1a
1Z
0W
0M
0D
0=
06
0/
0i
0b
0[
1P
1F
1?
18
11
1k
1d
1]
0L
1z
1K
1N
0Q
1U
1T
0&"
0#"
0}
0{
0E"
0'"
0$"
0!"
0|
0G"
b0 -
0F"
b0 *
1&
#1040
0w
0s
1_
1:
0`
0;
1b
1=
0@"
0?"
0>"
0="
00"
0/"
0."
0-"
b11011101110111011101110111011101 %
b11011101110111011101110111011101 (
b11011101110111011101110111011101 .
b11011101110111011101110111011101 R"
0&
1'
#1060
1O
1E
17
10
1j
1\
0I
0B
04
0n
0g
0Y
0R
0G
09
02
0l
0^
1M
1D
16
1/
1i
1[
1y
1S
0z
0N
0T
1E"
1'"
1$"
1!"
1|
b1 *
b11011101 )
b1 -
1F"
0I"
b11011101 !
b11011101 ,
b11011101 Q"
0M"
1&
#1080
0&
#1100
0P
0F
08
01
0k
0]
1R
1G
19
12
1l
1^
1Q
0S
1z
0U
1T
1&"
1#"
1}
1{
0E"
0'"
0$"
0!"
0|
1G"
b10 -
0F"
b10 *
1&
#1120
0&
0'
#1140
1I
1B
14
1n
1g
1Y
0y
0O
0E
07
00
0j
0\
0J
0C
05
0o
0h
0Z
1W
1P
1F
18
11
1k
1]
1L
0z
0K
0Q
0T
1E"
1'"
1$"
1!"
1|
b11 *
b11 -
1F"
1&
#1160
0&
#1180
0O
0E
07
00
0j
0\
1J
1C
15
1o
1h
1Z
0W
0M
0D
06
0/
0i
0[
1P
1F
18
11
1k
1]
0L
1z
1K
1N
0Q
1U
1T
0&"
0#"
0}
0{
0E"
0'"
0$"
0!"
0|
0G"
b0 -
0F"
b0 *
1&
#1200
1X
1f
1m
13
1A
1H
0Y
0g
0n
04
0B
0I
1[
1i
1/
16
1D
1M
0q
0r
0t
0u
0v
0x
0z
1W
0C"
0B"
0A"
1@"
0<"
0;"
0:"
09"
08"
07"
06"
05"
04"
03"
02"
01"
0,"
0+"
0*"
0)"
0("
0%"
0""
0~
1V
b11 %
b11 (
b11 .
b11 R"
0p
0#
0&
1'
#1220
0+
b0 )
0H"
0J"
0K"
0L"
0N"
b0 !
b0 ,
b0 Q"
0O"
0"
0P"
1&
#1240
0&
#1260
1&
#1280
0&
0'
#1300
1&
#1320
0&
#1340
1&
#1360
1z
0W
0V
1p
1#
0&
1'
#1380
1y
1S
0z
0N
0T
1E"
1'"
1$"
1!"
1|
b1 *
1+
b1 -
1F"
1"
1P"
1&
#1400
0&
#1420
1Q
0S
1z
0U
1T
1&"
1#"
1}
1{
0E"
0'"
0$"
0!"
0|
1G"
b10 -
0F"
b10 *
1&
#1440
0&
0'
#1460
1w
1x
0_
0X
1`
1Y
0y
0a
0Z
1W
1L
0z
0K
0Q
0T
1E"
1'"
1$"
1!"
1|
b11 *
b11 -
1F"
1&
#1480
0&
#1500
0w
0x
1_
1X
0`
0Y
1a
1Z
0W
0L
1z
1K
1N
0Q
1U
1T
0&"
0#"
0}
0{
0E"
0'"
0$"
0!"
0|
1I"
1H"
0G"
b0 -
0F"
b0 *
b11 !
b11 ,
b11 Q"
b11 )
1&
#1520
0D"
0@"
b0 %
b0 (
b0 .
b0 R"
0&
1'
