serial_paralelo/test.vcd
$date
	Fri Oct 22 17:42:01 2021
$end
$version
	Icarus Verilog
$end
$timescale
	100ps
$end
$scope module BUF $end
$var wire 1 ! A $end
$var wire 1 " Y $end
$upscope $end
$scope module DFFSR $end
$var wire 1 # C $end
$var wire 1 $ D $end
$var wire 1 % R $end
$var wire 1 & S $end
$var reg 1 ' Q $end
$upscope $end
$scope module bancoPruebas $end
$var wire 3 ( BC_contador [2:0] $end
$var wire 3 ) BC_contadorE [2:0] $end
$var wire 1 * active_input $end
$var wire 1 + active_inputE $end
$var wire 1 , data_intput $end
$var wire 8 - data_output [7:0] $end
$var wire 8 . data_outputE [7:0] $end
$var wire 1 / valid_out $end
$var wire 1 0 data_input $end
$var wire 1 1 clk_4f $end
$var wire 1 2 clk_32f $end
$var wire 1 3 active_output $end
$var wire 1 4 active $end
$scope module estructural $end
$var wire 3 5 BC_contador [2:0] $end
$var wire 3 6 contador [2:0] $end
$var wire 8 7 data_output [7:0] $end
$var wire 1 / valid_out $end
$var wire 1 0 data_input $end
$var wire 1 1 clk_4f $end
$var wire 1 2 clk_32f $end
$var wire 8 8 bus_0 [0:7] $end
$var wire 1 4 active_output $end
$var wire 1 9 _38_ $end
$var wire 1 : _37_ $end
$var wire 1 ; _36_ $end
$var wire 1 < _35_ $end
$var wire 1 = _34_ $end
$var wire 1 > _33_ $end
$var wire 1 ? _32_ $end
$var wire 1 @ _31_ $end
$var wire 1 A _30_ $end
$var wire 1 B _29_ $end
$var wire 1 C _28_ $end
$var wire 1 D _27_ $end
$var wire 1 E _26_ $end
$var wire 1 F _25_ $end
$var wire 1 G _24_ $end
$var wire 1 H _23_ $end
$var wire 1 I _22_ $end
$var wire 1 J _21_ $end
$var wire 1 K _20_ $end
$var wire 1 L _19_ $end
$var wire 1 M _18_ $end
$var wire 1 N _17_ $end
$var wire 1 O _16_ $end
$var wire 1 P _15_ $end
$var wire 1 Q _14_ $end
$var wire 1 R _13_ $end
$var wire 1 S _12_ $end
$var wire 1 T _11_ $end
$var wire 1 U _10_ $end
$var wire 1 V _09_ $end
$var wire 1 W _08_ $end
$var wire 1 X _07_ $end
$var wire 1 Y _06_ $end
$var wire 1 Z _05_ $end
$var wire 1 [ _04_ $end
$var wire 1 \ _03_ $end
$var wire 1 ] _02_ $end
$var wire 3 ^ _01_ [2:0] $end
$var wire 1 _ _00_ $end
$scope module _39_ $end
$var wire 1 ` A $end
$var wire 1 ] Y $end
$upscope $end
$scope module _40_ $end
$var wire 1 a A $end
$var wire 1 \ Y $end
$upscope $end
$scope module _41_ $end
$var wire 1 b A $end
$var wire 1 [ Y $end
$upscope $end
$scope module _42_ $end
$var wire 1 c A $end
$var wire 1 Z Y $end
$upscope $end
$scope module _43_ $end
$var wire 1 d A $end
$var wire 1 Y Y $end
$upscope $end
$scope module _44_ $end
$var wire 1 e A $end
$var wire 1 X Y $end
$upscope $end
$scope module _45_ $end
$var wire 1 f A $end
$var wire 1 W Y $end
$upscope $end
$scope module _46_ $end
$var wire 1 g A $end
$var wire 1 V Y $end
$upscope $end
$scope module _47_ $end
$var wire 1 h A $end
$var wire 1 U Y $end
$upscope $end
$scope module _48_ $end
$var wire 1 [ A $end
$var wire 1 i B $end
$var wire 1 T Y $end
$upscope $end
$scope module _49_ $end
$var wire 1 j A $end
$var wire 1 W B $end
$var wire 1 S Y $end
$upscope $end
$scope module _50_ $end
$var wire 1 X A $end
$var wire 1 k B $end
$var wire 1 R Y $end
$upscope $end
$scope module _51_ $end
$var wire 1 l A $end
$var wire 1 V B $end
$var wire 1 Q Y $end
$upscope $end
$scope module _52_ $end
$var wire 1 ] A $end
$var wire 1 m B $end
$var wire 1 P Y $end
$upscope $end
$scope module _53_ $end
$var wire 1 R A $end
$var wire 1 P B $end
$var wire 1 O Y $end
$upscope $end
$scope module _54_ $end
$var wire 1 S A $end
$var wire 1 Q B $end
$var wire 1 N Y $end
$upscope $end
$scope module _55_ $end
$var wire 1 n A $end
$var wire 1 U B $end
$var wire 1 M Y $end
$upscope $end
$scope module _56_ $end
$var wire 1 Y A $end
$var wire 1 o B $end
$var wire 1 L Y $end
$upscope $end
$scope module _57_ $end
$var wire 1 p A $end
$var wire 1 q B $end
$var wire 1 K Y $end
$upscope $end
$scope module _58_ $end
$var wire 1 K A $end
$var wire 1 J Y $end
$upscope $end
$scope module _59_ $end
$var wire 1 L A $end
$var wire 1 K B $end
$var wire 1 I Y $end
$upscope $end
$scope module _60_ $end
$var wire 1 M A $end
$var wire 1 J B $end
$var wire 1 H Y $end
$upscope $end
$scope module _61_ $end
$var wire 1 N A $end
$var wire 1 H B $end
$var wire 1 G Y $end
$upscope $end
$scope module _62_ $end
$var wire 1 O A $end
$var wire 1 I B $end
$var wire 1 F Y $end
$upscope $end
$scope module _63_ $end
$var wire 1 T A $end
$var wire 1 G B $end
$var wire 1 E Y $end
$upscope $end
$scope module _64_ $end
$var wire 1 \ A $end
$var wire 1 E B $end
$var wire 1 D Y $end
$upscope $end
$scope module _65_ $end
$var wire 1 \ A $end
$var wire 1 F B $end
$var wire 1 C Y $end
$upscope $end
$scope module _66_ $end
$var wire 1 r A $end
$var wire 1 G B $end
$var wire 1 B Y $end
$upscope $end
$scope module _67_ $end
$var wire 1 D A $end
$var wire 1 B B $end
$var wire 1 A Y $end
$upscope $end
$scope module _68_ $end
$var wire 1 A A $end
$var wire 1 s Y $end
$upscope $end
$scope module _69_ $end
$var wire 1 [ A $end
$var wire 1 B B $end
$var wire 1 @ Y $end
$upscope $end
$scope module _70_ $end
$var wire 1 [ A $end
$var wire 1 B B $end
$var wire 1 ? Y $end
$upscope $end
$scope module _71_ $end
$var wire 1 t A $end
$var wire 1 C B $end
$var wire 1 > Y $end
$upscope $end
$scope module _72_ $end
$var wire 1 @ A $end
$var wire 1 > B $end
$var wire 1 = Y $end
$upscope $end
$scope module _73_ $end
$var wire 1 = A $end
$var wire 1 u Y $end
$upscope $end
$scope module _74_ $end
$var wire 1 Z A $end
$var wire 1 ? B $end
$var wire 1 < Y $end
$upscope $end
$scope module _75_ $end
$var wire 1 v A $end
$var wire 1 > B $end
$var wire 1 ; Y $end
$upscope $end
$scope module _76_ $end
$var wire 1 < A $end
$var wire 1 ; B $end
$var wire 1 : Y $end
$upscope $end
$scope module _77_ $end
$var wire 1 : A $end
$var wire 1 w Y $end
$upscope $end
$scope module _78_ $end
$var wire 1 A A $end
$var wire 1 = B $end
$var wire 1 9 Y $end
$upscope $end
$scope module _79_ $end
$var wire 1 : A $end
$var wire 1 9 B $end
$var wire 1 _ Y $end
$upscope $end
$scope module _80_ $end
$var wire 1 x D $end
$var wire 1 1 C $end
$var reg 1 y Q $end
$upscope $end
$scope module _81_ $end
$var wire 1 z D $end
$var wire 1 1 C $end
$var reg 1 { Q $end
$upscope $end
$scope module _82_ $end
$var wire 1 | D $end
$var wire 1 1 C $end
$var reg 1 } Q $end
$upscope $end
$scope module _83_ $end
$var wire 1 _ D $end
$var wire 1 1 C $end
$var reg 1 4 Q $end
$upscope $end
$scope module _84_ $end
$var wire 1 ~ D $end
$var wire 1 1 C $end
$var reg 1 !" Q $end
$upscope $end
$scope module _85_ $end
$var wire 1 "" D $end
$var wire 1 1 C $end
$var reg 1 #" Q $end
$upscope $end
$scope module _86_ $end
$var wire 1 $" D $end
$var wire 1 1 C $end
$var reg 1 %" Q $end
$upscope $end
$scope module _87_ $end
$var wire 1 &" D $end
$var wire 1 1 C $end
$var reg 1 '" Q $end
$upscope $end
$scope module _88_ $end
$var wire 1 (" D $end
$var wire 1 1 C $end
$var reg 1 )" Q $end
$upscope $end
$scope module _89_ $end
$var wire 1 *" D $end
$var wire 1 1 C $end
$var reg 1 +" Q $end
$upscope $end
$scope module _90_ $end
$var wire 1 ," D $end
$var wire 1 1 C $end
$var reg 1 -" Q $end
$upscope $end
$scope module _91_ $end
$var wire 1 ." D $end
$var wire 1 1 C $end
$var reg 1 /" Q $end
$upscope $end
$scope module _92_ $end
$var wire 1 0 D $end
$var wire 1 2 C $end
$var reg 1 0" Q $end
$upscope $end
$upscope $end
$scope module probador1 $end
$var wire 3 1" BC_contador [2:0] $end
$var wire 3 2" BC_contadorE [2:0] $end
$var wire 1 * active_input $end
$var wire 1 + active_inputE $end
$var wire 8 3" data_output [7:0] $end
$var wire 8 4" data_outputE [7:0] $end
$var reg 1 2 clk_32f $end
$var reg 1 1 clk_4f $end
$var reg 1 0 data_input $end
$var reg 1 / valid_out $end
$upscope $end
$scope module serie_paralelo_1 $end
$var wire 1 2 clk_32f $end
$var wire 1 1 clk_4f $end
$var wire 1 , data_input $end
$var wire 1 / valid_out $end
$var reg 3 5" BC_contador [2:0] $end
$var reg 1 3 active_output $end
$var reg 8 6" bus_0 [0:7] $end
$var reg 3 7" contador [2:0] $end
$var reg 8 8" data_output [7:0] $end
$upscope $end
$upscope $end
$enddefinitions $end
#0
$dumpvars
bx 8"
bx 7"
bx 6"
bx 5"
bz 4"
bx 3"
bz 2"
bx 1"
x0"
x/"
x."
x-"
z,"
x+"
z*"
x)"
z("
x'"
z&"
x%"
z$"
x#"
z""
x!"
z~
x}
x|
x{
xz
xy
xx
xw
xv
xu
xt
xs
xr
xq
xp
xo
xn
xm
xl
xk
xj
xi
xh
xg
xf
xe
xd
xc
xb
xa
x`
x_
bx ^
x]
x\
x[
xZ
xY
xX
xW
xV
xU
xT
xS
xR
xQ
xP
xO
xN
xM
xL
xK
xJ
xI
xH
xG
xF
xE
xD
xC
xB
xA
x@
x?
x>
x=
x<
x;
x:
x9
bxzzzzzzz 8
bx 7
b0 6
bx 5
x4
x3
02
01
00
0/
bz .
bx -
z,
z+
z*
bz )
bx (
x'
z&
z%
z$
z#
z"
z!
$end
#10
0."
b0 5"
b0zzzzzzz 8
00"
12
#20
02
#30
12
#40
02
#50
12
#60
02
#70
10
12
#80
03
b0 7"
z!"
z#"
z%"
z'"
z)"
z+"
z-"
0/"
02
11
#90
1."
bzxxxxxxx 6"
00
b1zzzzzzz 8
10"
b1 7"
12
#100
02
#110
0."
b0zzzzzzz 8
00"
10
bzxxxxxx 6"
b10 7"
12
#120
02
#130
1."
bzxxxxx 6"
b1zzzzzzz 8
10"
b11 7"
12
#140
02
#150
bzxxxx 6"
b100 7"
12
#160
02
01
#170
bzxxx 6"
b101 7"
12
#180
02
#190
00
bzxx 6"
b110 7"
12
#200
02
#210
0."
bzx 6"
b0zzzzzzz 8
00"
b111 7"
12
#220
02
#230
10
bz 6"
b0 7"
12
#240
0;
0?
1>
1E
1B
0C
0G
1F
1H
0I
0M
1L
1U
z`
zd
ze
zf
zg
0h
zj
zk
zl
zm
zn
0o
zp
zq
b0zzzzzzz -
b0zzzzzzz 7
b0zzzzzzz 3"
bz 8"
02
11
#250
1."
1/
00
b1zzzzzzz 8
10"
b1 7"
12
#260
02
#270
0."
b0zzzzzzz 8
00"
10
b10 7"
12
#280
02
#290
1."
b1zzzzzzz 8
10"
b11 7"
12
#300
02
#310
b100 7"
12
#320
02
01
#330
b101 7"
12
#340
02
#350
00
b110 7"
12
#360
02
#370
0."
b0zzzzzzz 8
00"
b111 7"
12
#380
02
#390
10
b0 7"
12
#400
02
11
#410
1."
00
b1zzzzzzz 8
10"
b1 7"
12
#420
02
#430
0."
b0zzzzzzz 8
00"
10
b10 7"
12
#440
02
#450
1."
b1zzzzzzz 8
10"
b11 7"
12
#460
02
#470
b100 7"
12
#480
02
01
#490
b101 7"
12
#500
02
#510
00
b110 7"
12
#520
02
#530
0."
b0zzzzzzz 8
00"
b111 7"
12
#540
02
#550
10
b0 7"
12
#560
02
11
#570
1."
00
b1zzzzzzz 8
10"
b1 7"
12
#580
02
#590
0."
b0zzzzzzz 8
00"
10
b10 7"
12
#600
02
#610
1."
b1zzzzzzz 8
10"
b11 7"
12
#620
02
#630
b100 7"
12
#640
02
01
#650
b101 7"
12
#660
02
#670
00
b110 7"
12
#680
02
#690
0."
b0zzzzzzz 8
00"
b111 7"
12
#700
02
#710
b0 7"
12
#720
02
11
#730
10
b1 7"
12
#740
02
#750
1."
b1zzzzzzz 8
10"
00
b10 7"
12
#760
02
#770
0."
b0zzzzzzz 8
00"
b11 7"
12
#780
02
#790
10
b100 7"
12
#800
02
01
#810
1."
00
b1zzzzzzz 8
10"
b101 7"
12
#820
02
#830
0."
b0zzzzzzz 8
00"
10
b110 7"
12
#840
02
#850
1."
b1zzzzzzz 8
10"
b111 7"
12
#860
02
#870
b0 7"
12
#880
x;
x?
x>
xE
xB
xC
xG
xF
xH
xI
xM
xL
0U
1h
1o
b1zzzzzzz -
b1zzzzzzz 7
b1zzzzzzz 3"
1/"
02
11
#890
b1 7"
12
#900
02
#910
00
b10 7"
12
#920
02
#930
0."
10
b0zzzzzzz 8
00"
b11 7"
12
#940
02
#950
1."
b1zzzzzzz 8
10"
00
b100 7"
12
#960
02
01
#970
0."
b0zzzzzzz 8
00"
b101 7"
12
#980
02
#990
10
b110 7"
12
#1000
02
#1010
1."
00
b1zzzzzzz 8
10"
b111 7"
12
#1020
02
#1030
0."
b0zzzzzzz 8
00"
10
b0 7"
12
#1040
0;
0?
1>
1E
1B
0C
0G
1F
1H
0I
0M
1L
1U
0h
0o
b0zzzzzzz -
b0zzzzzzz 7
b0zzzzzzz 3"
0/"
02
11
#1050
1."
b1zzzzzzz 8
10"
b1 7"
12
#1060
02
#1070
00
b10 7"
12
#1080
02
#1090
0."
b0zzzzzzz 8
00"
b11 7"
12
#1100
02
#1110
10
b100 7"
12
#1120
02
01
#1130
1."
b1zzzzzzz 8
10"
b101 7"
12
#1140
02
#1150
b110 7"
12
#1160
02
#1170
00
b111 7"
12
#1180
02
#1190
0."
b0zzzzzzz 8
00"
b0 7"
12
#1200
02
11
#1210
b1 7"
12
#1220
02
#1230
10
b10 7"
12
#1240
02
#1250
1."
00
b1zzzzzzz 8
10"
b11 7"
12
#1260
02
#1270
0."
b0zzzzzzz 8
00"
10
b100 7"
12
#1280
02
01
#1290
1."
b1zzzzzzz 8
10"
b101 7"
12
#1300
02
#1310
b110 7"
12
#1320
02
#1330
00
b111 7"
12
#1340
02
#1350
0."
b0zzzzzzz 8
00"
b0 7"
12
#1360
02
11
#1370
b1 7"
12
#1380
02
#1390
10
b10 7"
12
#1400
02
#1410
1."
b1zzzzzzz 8
10"
b11 7"
12
#1420
02
#1430
b100 7"
12
#1440
02
01
#1450
00
b101 7"
12
#1460
02
#1470
0."
b0zzzzzzz 8
00"
10
b110 7"
12
#1480
02
#1490
1."
00
b1zzzzzzz 8
10"
b111 7"
12
#1500
02
#1510
0."
b0zzzzzzz 8
00"
10
b0 7"
12
#1520
02
11
#1530
1."
b1zzzzzzz 8
10"
b1 7"
12
#1540
02
#1550
b10 7"
12
#1560
02
#1570
b11 7"
12
#1580
02
#1590
b100 7"
12
#1600
02
01
#1610
b101 7"
12
#1620
02
#1630
b110 7"
12
#1640
02
#1650
00
b111 7"
12
#1660
02
#1670
0."
b0zzzzzzz 8
00"
b0 7"
12
#1680
02
11
#1690
b1 7"
12
#1700
02
#1710
10
b10 7"
12
#1720
02
#1730
1."
00
b1zzzzzzz 8
10"
b11 7"
12
#1740
02
#1750
0."
b0zzzzzzz 8
00"
b100 7"
12
#1760
02
01
#1770
b101 7"
12
#1780
02
#1790
10
b110 7"
12
#1800
02
#1810
1."
00
b1zzzzzzz 8
10"
b111 7"
12
