serial_paralelo/test.vcd
$date
	Fri Oct 22 12:59:40 2021
$end
$version
	Icarus Verilog
$end
$timescale
	100ps
$end
$scope module BUF $end
$var wire 1 ! A $end
$var wire 1 " Y $end
$upscope $end
$scope module DFFSR $end
$var wire 1 # C $end
$var wire 1 $ D $end
$var wire 1 % R $end
$var wire 1 & S $end
$var reg 1 ' Q $end
$upscope $end
$scope module bancoPruebas $end
$var wire 1 ( valid_out $end
$var wire 8 ) data_outE [7:0] $end
$var wire 8 * data_out [7:0] $end
$var wire 1 + data_in $end
$var wire 1 , clk_4f $end
$var wire 1 - clk_32f $end
$var wire 1 . activeE $end
$var wire 1 / active $end
$var wire 3 0 BC_counterE [2:0] $end
$var wire 3 1 BC_counter [2:0] $end
$scope module estructural $end
$var wire 3 2 counter [2:0] $end
$var wire 1 ( valid_out $end
$var wire 8 3 data_out [7:0] $end
$var wire 1 + data_in $end
$var wire 1 , clk_4f $end
$var wire 1 - clk_32f $end
$var wire 8 4 bus0 [0:7] $end
$var wire 1 . active $end
$var wire 1 5 _38_ $end
$var wire 1 6 _37_ $end
$var wire 1 7 _36_ $end
$var wire 1 8 _35_ $end
$var wire 1 9 _34_ $end
$var wire 1 : _33_ $end
$var wire 1 ; _32_ $end
$var wire 1 < _31_ $end
$var wire 1 = _30_ $end
$var wire 1 > _29_ $end
$var wire 1 ? _28_ $end
$var wire 1 @ _27_ $end
$var wire 1 A _26_ $end
$var wire 1 B _25_ $end
$var wire 1 C _24_ $end
$var wire 1 D _23_ $end
$var wire 1 E _22_ $end
$var wire 1 F _21_ $end
$var wire 1 G _20_ $end
$var wire 1 H _19_ $end
$var wire 1 I _18_ $end
$var wire 1 J _17_ $end
$var wire 1 K _16_ $end
$var wire 1 L _15_ $end
$var wire 1 M _14_ $end
$var wire 1 N _13_ $end
$var wire 1 O _12_ $end
$var wire 1 P _11_ $end
$var wire 1 Q _10_ $end
$var wire 1 R _09_ $end
$var wire 1 S _08_ $end
$var wire 1 T _07_ $end
$var wire 1 U _06_ $end
$var wire 1 V _05_ $end
$var wire 1 W _04_ $end
$var wire 1 X _03_ $end
$var wire 1 Y _02_ $end
$var wire 3 Z _01_ [2:0] $end
$var wire 1 [ _00_ $end
$var wire 3 \ BC_counter [2:0] $end
$scope module _39_ $end
$var wire 1 ] A $end
$var wire 1 Y Y $end
$upscope $end
$scope module _40_ $end
$var wire 1 ^ A $end
$var wire 1 X Y $end
$upscope $end
$scope module _41_ $end
$var wire 1 _ A $end
$var wire 1 W Y $end
$upscope $end
$scope module _42_ $end
$var wire 1 ` A $end
$var wire 1 V Y $end
$upscope $end
$scope module _43_ $end
$var wire 1 a A $end
$var wire 1 U Y $end
$upscope $end
$scope module _44_ $end
$var wire 1 b A $end
$var wire 1 T Y $end
$upscope $end
$scope module _45_ $end
$var wire 1 c A $end
$var wire 1 S Y $end
$upscope $end
$scope module _46_ $end
$var wire 1 d A $end
$var wire 1 R Y $end
$upscope $end
$scope module _47_ $end
$var wire 1 e A $end
$var wire 1 Q Y $end
$upscope $end
$scope module _48_ $end
$var wire 1 W A $end
$var wire 1 f B $end
$var wire 1 P Y $end
$upscope $end
$scope module _49_ $end
$var wire 1 g A $end
$var wire 1 S B $end
$var wire 1 O Y $end
$upscope $end
$scope module _50_ $end
$var wire 1 T A $end
$var wire 1 h B $end
$var wire 1 N Y $end
$upscope $end
$scope module _51_ $end
$var wire 1 i A $end
$var wire 1 R B $end
$var wire 1 M Y $end
$upscope $end
$scope module _52_ $end
$var wire 1 Y A $end
$var wire 1 j B $end
$var wire 1 L Y $end
$upscope $end
$scope module _53_ $end
$var wire 1 N A $end
$var wire 1 L B $end
$var wire 1 K Y $end
$upscope $end
$scope module _54_ $end
$var wire 1 O A $end
$var wire 1 M B $end
$var wire 1 J Y $end
$upscope $end
$scope module _55_ $end
$var wire 1 k A $end
$var wire 1 Q B $end
$var wire 1 I Y $end
$upscope $end
$scope module _56_ $end
$var wire 1 U A $end
$var wire 1 l B $end
$var wire 1 H Y $end
$upscope $end
$scope module _57_ $end
$var wire 1 m A $end
$var wire 1 n B $end
$var wire 1 G Y $end
$upscope $end
$scope module _58_ $end
$var wire 1 G A $end
$var wire 1 F Y $end
$upscope $end
$scope module _59_ $end
$var wire 1 H A $end
$var wire 1 G B $end
$var wire 1 E Y $end
$upscope $end
$scope module _60_ $end
$var wire 1 I A $end
$var wire 1 F B $end
$var wire 1 D Y $end
$upscope $end
$scope module _61_ $end
$var wire 1 J A $end
$var wire 1 D B $end
$var wire 1 C Y $end
$upscope $end
$scope module _62_ $end
$var wire 1 K A $end
$var wire 1 E B $end
$var wire 1 B Y $end
$upscope $end
$scope module _63_ $end
$var wire 1 P A $end
$var wire 1 C B $end
$var wire 1 A Y $end
$upscope $end
$scope module _64_ $end
$var wire 1 X A $end
$var wire 1 A B $end
$var wire 1 @ Y $end
$upscope $end
$scope module _65_ $end
$var wire 1 X A $end
$var wire 1 B B $end
$var wire 1 ? Y $end
$upscope $end
$scope module _66_ $end
$var wire 1 o A $end
$var wire 1 C B $end
$var wire 1 > Y $end
$upscope $end
$scope module _67_ $end
$var wire 1 @ A $end
$var wire 1 > B $end
$var wire 1 = Y $end
$upscope $end
$scope module _68_ $end
$var wire 1 = A $end
$var wire 1 p Y $end
$upscope $end
$scope module _69_ $end
$var wire 1 W A $end
$var wire 1 > B $end
$var wire 1 < Y $end
$upscope $end
$scope module _70_ $end
$var wire 1 W A $end
$var wire 1 > B $end
$var wire 1 ; Y $end
$upscope $end
$scope module _71_ $end
$var wire 1 q A $end
$var wire 1 ? B $end
$var wire 1 : Y $end
$upscope $end
$scope module _72_ $end
$var wire 1 < A $end
$var wire 1 : B $end
$var wire 1 9 Y $end
$upscope $end
$scope module _73_ $end
$var wire 1 9 A $end
$var wire 1 r Y $end
$upscope $end
$scope module _74_ $end
$var wire 1 V A $end
$var wire 1 ; B $end
$var wire 1 8 Y $end
$upscope $end
$scope module _75_ $end
$var wire 1 s A $end
$var wire 1 : B $end
$var wire 1 7 Y $end
$upscope $end
$scope module _76_ $end
$var wire 1 8 A $end
$var wire 1 7 B $end
$var wire 1 6 Y $end
$upscope $end
$scope module _77_ $end
$var wire 1 6 A $end
$var wire 1 t Y $end
$upscope $end
$scope module _78_ $end
$var wire 1 = A $end
$var wire 1 9 B $end
$var wire 1 5 Y $end
$upscope $end
$scope module _79_ $end
$var wire 1 6 A $end
$var wire 1 5 B $end
$var wire 1 [ Y $end
$upscope $end
$scope module _80_ $end
$var wire 1 u D $end
$var wire 1 , C $end
$var reg 1 v Q $end
$upscope $end
$scope module _81_ $end
$var wire 1 w D $end
$var wire 1 , C $end
$var reg 1 x Q $end
$upscope $end
$scope module _82_ $end
$var wire 1 y D $end
$var wire 1 , C $end
$var reg 1 z Q $end
$upscope $end
$scope module _83_ $end
$var wire 1 [ D $end
$var wire 1 , C $end
$var reg 1 . Q $end
$upscope $end
$scope module _84_ $end
$var wire 1 { D $end
$var wire 1 , C $end
$var reg 1 | Q $end
$upscope $end
$scope module _85_ $end
$var wire 1 } D $end
$var wire 1 , C $end
$var reg 1 ~ Q $end
$upscope $end
$scope module _86_ $end
$var wire 1 !" D $end
$var wire 1 , C $end
$var reg 1 "" Q $end
$upscope $end
$scope module _87_ $end
$var wire 1 #" D $end
$var wire 1 , C $end
$var reg 1 $" Q $end
$upscope $end
$scope module _88_ $end
$var wire 1 %" D $end
$var wire 1 , C $end
$var reg 1 &" Q $end
$upscope $end
$scope module _89_ $end
$var wire 1 '" D $end
$var wire 1 , C $end
$var reg 1 (" Q $end
$upscope $end
$scope module _90_ $end
$var wire 1 )" D $end
$var wire 1 , C $end
$var reg 1 *" Q $end
$upscope $end
$scope module _91_ $end
$var wire 1 +" D $end
$var wire 1 , C $end
$var reg 1 ," Q $end
$upscope $end
$scope module _92_ $end
$var wire 1 + D $end
$var wire 1 - C $end
$var reg 1 -" Q $end
$upscope $end
$upscope $end
$scope module probador_serie_paralelo_1 $end
$var wire 3 ." BC_counterE [2:0] $end
$var wire 1 . activeE $end
$var wire 8 /" data_outE [7:0] $end
$var wire 8 0" data_out [7:0] $end
$var wire 1 / active $end
$var wire 3 1" BC_counter [2:0] $end
$var reg 1 - clk_32f $end
$var reg 1 , clk_4f $end
$var reg 1 + data_in $end
$var reg 1 ( valid_out $end
$upscope $end
$scope module serie_paralelo_1 $end
$var wire 1 - clk_32f $end
$var wire 1 , clk_4f $end
$var wire 1 + data_in $end
$var wire 1 ( valid_out $end
$var reg 3 2" BC_counter [2:0] $end
$var reg 1 / active $end
$var reg 8 3" bus0 [0:7] $end
$var reg 3 4" counter [2:0] $end
$var reg 8 5" data_out [7:0] $end
$upscope $end
$upscope $end
$enddefinitions $end
#0
$dumpvars
bx 5"
bx 4"
bx 3"
bx 2"
bx 1"
bx 0"
bx /"
bx ."
x-"
x,"
x+"
x*"
z)"
x("
z'"
x&"
z%"
x$"
z#"
x""
z!"
x~
z}
x|
z{
xz
xy
xx
xw
xv
xu
xt
xs
xr
xq
xp
xo
xn
xm
xl
xk
xj
xi
xh
xg
xf
xe
xd
xc
xb
xa
x`
x_
x^
x]
bx \
x[
bx Z
xY
xX
xW
xV
xU
xT
xS
xR
xQ
xP
xO
xN
xM
xL
xK
xJ
xI
xH
xG
xF
xE
xD
xC
xB
xA
x@
x?
x>
x=
x<
x;
x:
x9
x8
x7
x6
x5
bxzzzzzzz 4
bx 3
b0 2
bx 1
bx 0
x/
x.
0-
0,
0+
bx *
bx )
0(
x'
z&
z%
z$
z#
z"
z!
$end
#10
0+"
b0 1
b0 1"
b0 2"
b0zzzzzzz 4
0-"
1-
#20
0-
#30
1-
#40
0-
#50
1-
#60
0-
#70
1+
1-
#80
07
0;
1:
1A
1>
0?
0C
1B
1D
0E
0I
1H
1Q
zk
za
zg
zb
zm
zh
zc
zj
zd
zn
zi
z]
0l
0e
0/
b0 4"
z|
z~
z""
z$"
z&"
z("
z*"
b0zzzzzzz )
b0zzzzzzz 3
b0zzzzzzz /"
0,"
0-
1,
#90
1+"
b1xxxxxxx 3"
0+
b1zzzzzzz 4
1-"
b1 4"
1-
#100
0-
#110
0+"
b0zzzzzzz 4
0-"
1+
b10xxxxxx 3"
b10 4"
1-
#120
0-
#130
1+"
b101xxxxx 3"
b1zzzzzzz 4
1-"
b11 4"
1-
#140
0-
#150
b1011xxxx 3"
b100 4"
1-
#160
0-
0,
#170
b10111xxx 3"
b101 4"
1-
#180
0-
#190
0+
b101111xx 3"
b110 4"
1-
#200
0-
#210
0+"
b1011110x 3"
b0zzzzzzz 4
0-"
b111 4"
1-
#220
0-
#230
1+
b10111100 3"
b0 4"
1-
#240
b10111100 *
b10111100 0"
b10111100 5"
0-
1,
#250
1+"
1(
0+
b1zzzzzzz 4
1-"
b1 4"
1-
#260
0-
#270
0+"
b0zzzzzzz 4
0-"
1+
b10 4"
1-
#280
0-
#290
1+"
b1zzzzzzz 4
1-"
b11 4"
1-
#300
0-
#310
b100 4"
1-
#320
0-
0,
#330
b101 4"
1-
#340
0-
#350
0+
b110 4"
1-
#360
0-
#370
0+"
b0zzzzzzz 4
0-"
b111 4"
1-
#380
0-
#390
1+
b0 4"
1-
#400
b1 1
b1 1"
b1 2"
0-
1,
#410
1+"
0+
b1zzzzzzz 4
1-"
b1 4"
1-
#420
0-
#430
0+"
b0zzzzzzz 4
0-"
1+
b10 4"
1-
#440
0-
#450
1+"
b1zzzzzzz 4
1-"
b11 4"
1-
#460
0-
#470
b100 4"
1-
#480
0-
0,
#490
b101 4"
1-
#500
0-
#510
0+
b110 4"
1-
#520
0-
#530
0+"
b0zzzzzzz 4
0-"
b111 4"
1-
#540
0-
#550
1+
b0 4"
1-
#560
b10 1
b10 1"
b10 2"
0-
1,
#570
1+"
0+
b1zzzzzzz 4
1-"
b1 4"
1-
#580
0-
#590
0+"
b0zzzzzzz 4
0-"
1+
b10 4"
1-
#600
0-
#610
1+"
b1zzzzzzz 4
1-"
b11 4"
1-
#620
0-
#630
b100 4"
1-
#640
0-
0,
#650
b101 4"
1-
#660
0-
#670
0+
b110 4"
1-
#680
0-
#690
0+"
b0zzzzzzz 4
0-"
b111 4"
1-
#700
0-
#710
b0 4"
1-
#720
b11 1
b11 1"
b11 2"
0-
1,
#730
b111100 3"
1+
b1 4"
1-
#740
0-
#750
1+"
b1zzzzzzz 4
1-"
0+
b1111100 3"
b10 4"
1-
#760
0-
#770
0+"
b1011100 3"
b0zzzzzzz 4
0-"
b11 4"
1-
#780
0-
#790
1+
b1001100 3"
b100 4"
1-
#800
0-
0,
#810
1+"
0+
b1zzzzzzz 4
1-"
b101 4"
1-
#820
0-
#830
0+"
b0zzzzzzz 4
0-"
1+
b1001000 3"
b110 4"
1-
#840
0-
#850
1+"
b1001010 3"
b1zzzzzzz 4
1-"
b111 4"
1-
#860
0-
#870
b1001011 3"
b0 4"
1-
#880
x7
x;
x:
xA
x>
x?
xC
xB
xD
xE
xI
xH
0Q
1l
1e
b1zzzzzzz )
b1zzzzzzz 3
b1zzzzzzz /"
1,"
1/
b1001011 *
b1001011 0"
b1001011 5"
b100 1
b100 1"
b100 2"
0-
1,
#890
b11001011 3"
b1 4"
1-
#900
0-
#910
0+
b10 4"
1-
#920
0-
#930
0+"
1+
b0zzzzzzz 4
0-"
b11 4"
1-
#940
0-
#950
1+"
b1zzzzzzz 4
1-"
0+
b11011011 3"
b100 4"
1-
#960
0-
0,
#970
0+"
b11010011 3"
b0zzzzzzz 4
0-"
b101 4"
1-
#980
0-
#990
1+
b110 4"
1-
#1000
0-
#1010
1+"
0+
b1zzzzzzz 4
1-"
b111 4"
1-
#1020
0-
#1030
0+"
b0zzzzzzz 4
0-"
1+
b11010010 3"
b0 4"
1-
#1040
07
0;
1:
1A
1>
0?
0C
1B
1D
0E
0I
1H
1Q
0l
0e
b11010010 *
b11010010 0"
b11010010 5"
b0zzzzzzz )
b0zzzzzzz 3
b0zzzzzzz /"
0,"
0-
1,
#1050
1+"
b1zzzzzzz 4
1-"
b1 4"
1-
#1060
0-
#1070
0+
b10 4"
1-
#1080
0-
#1090
0+"
b0zzzzzzz 4
0-"
b11 4"
1-
#1100
0-
#1110
1+
b11000010 3"
b100 4"
1-
#1120
0-
0,
#1130
1+"
b11001010 3"
b1zzzzzzz 4
1-"
b101 4"
1-
#1140
0-
#1150
b11001110 3"
b110 4"
1-
#1160
0-
#1170
0+
b111 4"
1-
#1180
0-
#1190
0+"
b0zzzzzzz 4
0-"
b0 4"
1-
#1200
b11001110 *
b11001110 0"
b11001110 5"
0-
1,
#1210
b1001110 3"
b1 4"
1-
#1220
0-
#1230
1+
b1110 3"
b10 4"
1-
#1240
0-
#1250
1+"
b101110 3"
0+
b1zzzzzzz 4
1-"
b11 4"
1-
#1260
0-
#1270
0+"
b0zzzzzzz 4
0-"
1+
b100 4"
1-
#1280
0-
0,
#1290
1+"
b1zzzzzzz 4
1-"
b101 4"
1-
#1300
0-
#1310
b110 4"
1-
#1320
0-
#1330
0+
b111 4"
1-
#1340
0-
#1350
0+"
b0zzzzzzz 4
0-"
b0 4"
1-
#1360
b101110 *
b101110 0"
b101110 5"
0-
1,
#1370
b1 4"
1-
#1380
0-
#1390
1+
b10 4"
1-
#1400
0-
#1410
1+"
b1zzzzzzz 4
1-"
b11 4"
1-
#1420
0-
#1430
b111110 3"
b100 4"
1-
#1440
0-
0,
#1450
0+
b101 4"
1-
#1460
0-
#1470
0+"
b0zzzzzzz 4
0-"
1+
b111010 3"
b110 4"
1-
#1480
0-
#1490
1+"
0+
b1zzzzzzz 4
1-"
b111 4"
1-
#1500
0-
#1510
0+"
b0zzzzzzz 4
0-"
1+
b0 4"
1-
#1520
b111010 *
b111010 0"
b111010 5"
0-
1,
#1530
1+"
b10111010 3"
b1zzzzzzz 4
1-"
b1 4"
1-
#1540
0-
#1550
b11111010 3"
b10 4"
1-
#1560
0-
#1570
b11 4"
1-
#1580
0-
#1590
b100 4"
1-
#1600
0-
0,
#1610
b101 4"
1-
#1620
0-
#1630
b11111110 3"
b110 4"
1-
#1640
0-
#1650
0+
b111 4"
1-
#1660
0-
#1670
0+"
b0zzzzzzz 4
0-"
b0 4"
1-
#1680
b11111110 *
b11111110 0"
b11111110 5"
0-
1,
#1690
b1111110 3"
b1 4"
1-
#1700
0-
#1710
1+
b111110 3"
b10 4"
1-
#1720
0-
#1730
1+"
0+
b1zzzzzzz 4
1-"
b11 4"
1-
#1740
0-
#1750
0+"
b0zzzzzzz 4
0-"
b101110 3"
b100 4"
1-
#1760
0-
0,
#1770
b100110 3"
b101 4"
1-
#1780
0-
#1790
1+
b100010 3"
b110 4"
1-
#1800
0-
#1810
1+"
0+
b1zzzzzzz 4
1-"
b111 4"
1-
