serial_paralelo/test.vcd
$date
	Fri Oct 22 22:06:01 2021
$end
$version
	Icarus Verilog
$end
$timescale
	100ps
$end
$scope module BUF $end
$var wire 1 ! A $end
$var wire 1 " Y $end
$upscope $end
$scope module DFFSR $end
$var wire 1 # C $end
$var wire 1 $ D $end
$var wire 1 % R $end
$var wire 1 & S $end
$var reg 1 ' Q $end
$upscope $end
$scope module NAND $end
$var wire 1 ( A $end
$var wire 1 ) B $end
$var wire 1 * Y $end
$upscope $end
$scope module NOR $end
$var wire 1 + A $end
$var wire 1 , B $end
$var wire 1 - Y $end
$upscope $end
$scope module NOT $end
$var wire 1 . A $end
$var wire 1 / Y $end
$upscope $end
$scope module bancoPruebas $end
$var wire 3 0 BC_contadorE [2:0] $end
$var wire 1 1 activeE $end
$var wire 1 2 valid_out $end
$var wire 8 3 data_outputE [7:0] $end
$var wire 8 4 data_output [7:0] $end
$var wire 1 5 data_input $end
$var wire 1 6 clk_4f $end
$var wire 1 7 clk_32f $end
$var wire 1 8 active $end
$var wire 3 9 BC_contador [2:0] $end
$scope module estructural $end
$var wire 3 : BC_contador [2:0] $end
$var wire 1 1 active_output $end
$var wire 3 ; contador [2:0] $end
$var wire 1 2 valid_out $end
$var wire 8 < data_output [7:0] $end
$var wire 1 5 data_input $end
$var wire 1 6 clk_4f $end
$var wire 1 7 clk_32f $end
$var wire 8 = bus_0 [0:7] $end
$scope module _0_ $end
$var wire 1 > D $end
$var wire 1 6 C $end
$var reg 1 ? Q $end
$upscope $end
$scope module _1_ $end
$var wire 1 @ D $end
$var wire 1 6 C $end
$var reg 1 A Q $end
$upscope $end
$scope module _2_ $end
$var wire 1 B D $end
$var wire 1 6 C $end
$var reg 1 C Q $end
$upscope $end
$scope module _3_ $end
$var wire 1 D D $end
$var wire 1 6 C $end
$var reg 1 E Q $end
$upscope $end
$scope module _4_ $end
$var wire 1 F D $end
$var wire 1 6 C $end
$var reg 1 G Q $end
$upscope $end
$scope module _5_ $end
$var wire 1 H D $end
$var wire 1 6 C $end
$var reg 1 I Q $end
$upscope $end
$scope module _6_ $end
$var wire 1 J D $end
$var wire 1 6 C $end
$var reg 1 K Q $end
$upscope $end
$scope module _7_ $end
$var wire 1 L D $end
$var wire 1 6 C $end
$var reg 1 M Q $end
$upscope $end
$scope module _8_ $end
$var wire 1 5 D $end
$var wire 1 7 C $end
$var reg 1 N Q $end
$upscope $end
$upscope $end
$scope module probador1 $end
$var wire 3 O BC_contadorE [2:0] $end
$var wire 1 1 active_inputE $end
$var wire 8 P data_outputE [7:0] $end
$var wire 8 Q data_output [7:0] $end
$var wire 1 8 active_input $end
$var wire 3 R BC_contador [2:0] $end
$var reg 1 7 clk_32f $end
$var reg 1 6 clk_4f $end
$var reg 1 5 data_input $end
$var reg 1 2 valid_out $end
$upscope $end
$scope module serie_paralelo_1 $end
$var wire 1 7 clk_32f $end
$var wire 1 6 clk_4f $end
$var wire 1 5 data_input $end
$var wire 1 2 valid_out $end
$var reg 3 S BC_contador [2:0] $end
$var reg 1 8 active_output $end
$var reg 8 T bus_0 [0:7] $end
$var reg 3 U contador [2:0] $end
$var reg 8 V data_output [7:0] $end
$upscope $end
$upscope $end
$enddefinitions $end
#0
$dumpvars
bx V
bx U
bx T
b0 S
b0 R
bx Q
bx P
b0 O
xN
xM
xL
xK
zJ
xI
zH
xG
zF
xE
zD
xC
zB
xA
z@
x?
z>
bxzzzzzzz =
bx <
b0 ;
b0 :
b0 9
x8
07
06
05
bx 4
bx 3
02
01
b0 0
z/
z.
x-
z,
z+
x*
z)
z(
x'
z&
z%
z$
z#
z"
z!
$end
#10
0L
b0zzzzzzz =
0N
17
#20
07
#30
17
#40
07
#50
17
#60
07
#70
15
17
#80
08
b0 U
z?
zA
zC
zE
zG
zI
zK
b0zzzzzzz 3
b0zzzzzzz <
b0zzzzzzz P
0M
07
16
#90
1L
b1xxxxxxx T
05
b1zzzzzzz =
1N
b1 U
17
#100
07
#110
0L
b0zzzzzzz =
0N
15
b10xxxxxx T
b10 U
17
#120
07
#130
1L
b101xxxxx T
b1zzzzzzz =
1N
b11 U
17
#140
07
#150
b1011xxxx T
b100 U
17
#160
07
06
#170
b10111xxx T
b101 U
17
#180
07
#190
05
b101111xx T
b110 U
17
#200
07
#210
0L
b1011110x T
b0zzzzzzz =
0N
b111 U
17
#220
07
#230
15
b10111100 T
b0 U
17
#240
b10111100 4
b10111100 Q
b10111100 V
07
16
#250
1L
12
05
b1zzzzzzz =
1N
b1 U
17
#260
07
#270
0L
b0zzzzzzz =
0N
15
b10 U
17
#280
07
#290
1L
b1zzzzzzz =
1N
b11 U
17
#300
07
#310
b100 U
17
#320
07
06
#330
b101 U
17
#340
07
#350
05
b110 U
17
#360
07
#370
0L
b0zzzzzzz =
0N
b111 U
17
#380
07
#390
15
b0 U
17
#400
b1 9
b1 R
b1 S
07
16
#410
1L
05
b1zzzzzzz =
1N
b1 U
17
#420
07
#430
0L
b0zzzzzzz =
0N
15
b10 U
17
#440
07
#450
1L
b1zzzzzzz =
1N
b11 U
17
#460
07
#470
b100 U
17
#480
07
06
#490
b101 U
17
#500
07
#510
05
b110 U
17
#520
07
#530
0L
b0zzzzzzz =
0N
b111 U
17
#540
07
#550
15
b0 U
17
#560
b10 9
b10 R
b10 S
07
16
#570
1L
05
b1zzzzzzz =
1N
b1 U
17
#580
07
#590
0L
b0zzzzzzz =
0N
15
b10 U
17
#600
07
#610
1L
b1zzzzzzz =
1N
b11 U
17
#620
07
#630
b100 U
17
#640
07
06
#650
b101 U
17
#660
07
#670
05
b110 U
17
#680
07
#690
0L
b0zzzzzzz =
0N
b111 U
17
#700
07
#710
b0 U
17
#720
b11 9
b11 R
b11 S
07
16
#730
b111100 T
15
b1 U
17
#740
07
#750
1L
b1zzzzzzz =
1N
05
b1111100 T
b10 U
17
#760
07
#770
0L
b1011100 T
b0zzzzzzz =
0N
b11 U
17
#780
07
#790
15
b1001100 T
b100 U
17
#800
07
06
#810
1L
05
b1zzzzzzz =
1N
b101 U
17
#820
07
#830
0L
b0zzzzzzz =
0N
15
b1001000 T
b110 U
17
#840
07
#850
1L
b1001010 T
b1zzzzzzz =
1N
b111 U
17
#860
07
#870
b1001011 T
b0 U
17
#880
b1zzzzzzz 3
b1zzzzzzz <
b1zzzzzzz P
1M
18
b1001011 4
b1001011 Q
b1001011 V
b100 9
b100 R
b100 S
07
16
#890
b11001011 T
b1 U
17
#900
07
#910
05
b10 U
17
#920
07
#930
0L
15
b0zzzzzzz =
0N
b11 U
17
#940
07
#950
1L
b1zzzzzzz =
1N
05
b11011011 T
b100 U
17
#960
07
06
#970
0L
b11010011 T
b0zzzzzzz =
0N
b101 U
17
#980
07
#990
15
b110 U
17
#1000
07
#1010
1L
05
b1zzzzzzz =
1N
b111 U
17
#1020
07
#1030
0L
b0zzzzzzz =
0N
15
b11010010 T
b0 U
17
#1040
b11010010 4
b11010010 Q
b11010010 V
b0zzzzzzz 3
b0zzzzzzz <
b0zzzzzzz P
0M
07
16
#1050
1L
b1zzzzzzz =
1N
b1 U
17
#1060
07
#1070
05
b10 U
17
#1080
07
#1090
0L
b0zzzzzzz =
0N
b11 U
17
#1100
07
#1110
15
b11000010 T
b100 U
17
#1120
07
06
#1130
1L
b11001010 T
b1zzzzzzz =
1N
b101 U
17
#1140
07
#1150
b11001110 T
b110 U
17
#1160
07
#1170
05
b111 U
17
#1180
07
#1190
0L
b0zzzzzzz =
0N
b0 U
17
#1200
b11001110 4
b11001110 Q
b11001110 V
07
16
#1210
b1001110 T
b1 U
17
#1220
07
#1230
15
b1110 T
b10 U
17
#1240
07
#1250
1L
b101110 T
05
b1zzzzzzz =
1N
b11 U
17
#1260
07
#1270
0L
b0zzzzzzz =
0N
15
b100 U
17
#1280
07
06
#1290
1L
b1zzzzzzz =
1N
b101 U
17
#1300
07
#1310
b110 U
17
#1320
07
#1330
05
b111 U
17
#1340
07
#1350
0L
b0zzzzzzz =
0N
b0 U
17
#1360
b101110 4
b101110 Q
b101110 V
07
16
#1370
b1 U
17
#1380
07
#1390
15
b10 U
17
#1400
07
#1410
1L
b1zzzzzzz =
1N
b11 U
17
#1420
07
#1430
b111110 T
b100 U
17
#1440
07
06
#1450
05
b101 U
17
#1460
07
#1470
0L
b0zzzzzzz =
0N
15
b111010 T
b110 U
17
#1480
07
#1490
1L
05
b1zzzzzzz =
1N
b111 U
17
#1500
07
#1510
0L
b0zzzzzzz =
0N
15
b0 U
17
#1520
b111010 4
b111010 Q
b111010 V
07
16
#1530
1L
b10111010 T
b1zzzzzzz =
1N
b1 U
17
#1540
07
#1550
b11111010 T
b10 U
17
#1560
07
#1570
b11 U
17
#1580
07
#1590
b100 U
17
#1600
07
06
#1610
b101 U
17
#1620
07
#1630
b11111110 T
b110 U
17
#1640
07
#1650
05
b111 U
17
#1660
07
#1670
0L
b0zzzzzzz =
0N
b0 U
17
#1680
b11111110 4
b11111110 Q
b11111110 V
07
16
#1690
b1111110 T
b1 U
17
#1700
07
#1710
15
b111110 T
b10 U
17
#1720
07
#1730
1L
05
b1zzzzzzz =
1N
b11 U
17
#1740
07
#1750
0L
b0zzzzzzz =
0N
b101110 T
b100 U
17
#1760
07
06
#1770
b100110 T
b101 U
17
#1780
07
#1790
15
b100010 T
b110 U
17
#1800
07
#1810
1L
05
b1zzzzzzz =
1N
b111 U
17
